[
  {
    "id_product": 27,
    "order_date": "2019-01-12",
    "price": "$3,493.16"
  },
  {
    "id_product": 21,
    "order_date": "2019-02-08",
    "price": "$3,005.69"
  },
  {
    "id_product": 28,
    "order_date": "2019-02-22",
    "price": "$3,655.04"
  },
  {
    "id_product": 38,
    "order_date": "2019-03-16",
    "price": "$1,042.02"
  },
  {
    "id_product": 39,
    "order_date": "2019-02-10",
    "price": "$1,837.51"
  },
  {
    "id_product": 35,
    "order_date": "2019-02-24",
    "price": "$1,857.89"
  },
  {
    "id_product": 37,
    "order_date": "2019-01-05",
    "price": "$2,899.51"
  },
  {
    "id_product": 38,
    "order_date": "2019-01-05",
    "price": "$2,585.27"
  },
  {
    "id_product": 22,
    "order_date": "2019-02-19",
    "price": "$3,962.46"
  },
  {
    "id_product": 38,
    "order_date": "2019-02-13",
    "price": "$2,299.19"
  },
  {
    "id_product": 38,
    "order_date": "2019-02-03",
    "price": "$3,192.84"
  },
  {
    "id_product": 39,
    "order_date": "2019-03-19",
    "price": "$2,809.57"
  },
  {
    "id_product": 23,
    "order_date": "2019-02-07",
    "price": "$2,951.04"
  },
  {
    "id_product": 23,
    "order_date": "2019-02-24",
    "price": "$2,998.25"
  },
  {
    "id_product": 30,
    "order_date": "2019-01-27",
    "price": "$1,507.26"
  },
  {
    "id_product": 21,
    "order_date": "2019-01-25",
    "price": "$2,447.41"
  },
  {
    "id_product": 29,
    "order_date": "2019-03-25",
    "price": "$3,344.29"
  },
  {
    "id_product": 30,
    "order_date": "2019-02-14",
    "price": "$2,303.74"
  },
  {
    "id_product": 33,
    "order_date": "2019-03-19",
    "price": "$2,028.02"
  },
  {
    "id_product": 34,
    "order_date": "2019-01-13",
    "price": "$1,128.84"
  },
  {
    "id_product": 28,
    "order_date": "2019-02-15",
    "price": "$1,335.83"
  },
  {
    "id_product": 37,
    "order_date": "2019-03-22",
    "price": "$1,031.82"
  },
  {
    "id_product": 28,
    "order_date": "2019-03-23",
    "price": "$3,891.84"
  },
  {
    "id_product": 23,
    "order_date": "2019-02-09",
    "price": "$3,694.34"
  },
  {
    "id_product": 38,
    "order_date": "2019-03-14",
    "price": "$1,446.51"
  },
  {
    "id_product": 30,
    "order_date": "2019-02-13",
    "price": "$3,837.03"
  },
  {
    "id_product": 24,
    "order_date": "2019-01-17",
    "price": "$1,081.59"
  },
  {
    "id_product": 36,
    "order_date": "2019-02-10",
    "price": "$2,605.05"
  },
  {
    "id_product": 38,
    "order_date": "2019-01-26",
    "price": "$2,739.56"
  },
  {
    "id_product": 22,
    "order_date": "2019-03-02",
    "price": "$3,836.33"
  },
  {
    "id_product": 23,
    "order_date": "2019-03-19",
    "price": "$3,336.73"
  },
  {
    "id_product": 26,
    "order_date": "2019-02-10",
    "price": "$1,787.31"
  },
  {
    "id_product": 36,
    "order_date": "2019-01-25",
    "price": "$3,821.34"
  },
  {
    "id_product": 21,
    "order_date": "2019-01-24",
    "price": "$2,250.79"
  },
  {
    "id_product": 37,
    "order_date": "2019-02-01",
    "price": "$1,786.50"
  },
  {
    "id_product": 36,
    "order_date": "2019-01-13",
    "price": "$3,979.16"
  },
  {
    "id_product": 38,
    "order_date": "2019-01-04",
    "price": "$3,090.53"
  },
  {
    "id_product": 39,
    "order_date": "2019-02-26",
    "price": "$1,471.16"
  },
  {
    "id_product": 22,
    "order_date": "2019-03-07",
    "price": "$1,830.25"
  },
  {
    "id_product": 25,
    "order_date": "2019-01-12",
    "price": "$2,661.91"
  },
  {
    "id_product": 26,
    "order_date": "2019-02-25",
    "price": "$1,846.01"
  },
  {
    "id_product": 21,
    "order_date": "2019-02-11",
    "price": "$3,957.75"
  },
  {
    "id_product": 33,
    "order_date": "2019-02-03",
    "price": "$2,232.67"
  },
  {
    "id_product": 34,
    "order_date": "2019-01-14",
    "price": "$1,529.59"
  },
  {
    "id_product": 27,
    "order_date": "2019-01-17",
    "price": "$1,202.79"
  },
  {
    "id_product": 28,
    "order_date": "2019-03-03",
    "price": "$2,121.47"
  },
  {
    "id_product": 28,
    "order_date": "2019-02-10",
    "price": "$3,612.86"
  },
  {
    "id_product": 32,
    "order_date": "2019-01-21",
    "price": "$1,601.41"
  },
  {
    "id_product": 24,
    "order_date": "2019-02-01",
    "price": "$3,238.85"
  },
  {
    "id_product": 35,
    "order_date": "2019-03-20",
    "price": "$3,301.32"
  },
  {
    "id_product": 21,
    "order_date": "2019-02-19",
    "price": "$1,790.84"
  },
  {
    "id_product": 27,
    "order_date": "2019-01-22",
    "price": "$2,589.72"
  },
  {
    "id_product": 40,
    "order_date": "2019-02-18",
    "price": "$3,226.23"
  },
  {
    "id_product": 39,
    "order_date": "2019-02-28",
    "price": "$3,797.31"
  },
  {
    "id_product": 34,
    "order_date": "2019-01-25",
    "price": "$1,534.31"
  },
  {
    "id_product": 22,
    "order_date": "2019-01-15",
    "price": "$3,094.84"
  },
  {
    "id_product": 37,
    "order_date": "2019-02-11",
    "price": "$1,783.16"
  },
  {
    "id_product": 26,
    "order_date": "2019-01-29",
    "price": "$3,769.54"
  },
  {
    "id_product": 27,
    "order_date": "2019-01-31",
    "price": "$2,781.62"
  },
  {
    "id_product": 28,
    "order_date": "2019-01-21",
    "price": "$2,892.37"
  },
  {
    "id_product": 28,
    "order_date": "2019-03-09",
    "price": "$2,456.62"
  },
  {
    "id_product": 37,
    "order_date": "2019-01-03",
    "price": "$3,349.06"
  },
  {
    "id_product": 34,
    "order_date": "2019-03-28",
    "price": "$1,794.79"
  },
  {
    "id_product": 28,
    "order_date": "2019-03-26",
    "price": "$3,659.25"
  },
  {
    "id_product": 36,
    "order_date": "2019-01-25",
    "price": "$2,414.49"
  },
  {
    "id_product": 28,
    "order_date": "2019-01-17",
    "price": "$1,453.26"
  },
  {
    "id_product": 39,
    "order_date": "2019-02-11",
    "price": "$3,180.89"
  },
  {
    "id_product": 23,
    "order_date": "2019-01-14",
    "price": "$1,213.60"
  },
  {
    "id_product": 22,
    "order_date": "2019-01-23",
    "price": "$3,151.38"
  },
  {
    "id_product": 31,
    "order_date": "2019-02-20",
    "price": "$1,572.23"
  },
  {
    "id_product": 29,
    "order_date": "2019-02-13",
    "price": "$2,755.30"
  },
  {
    "id_product": 37,
    "order_date": "2019-01-28",
    "price": "$3,491.65"
  },
  {
    "id_product": 33,
    "order_date": "2019-01-18",
    "price": "$2,345.57"
  },
  {
    "id_product": 21,
    "order_date": "2019-02-10",
    "price": "$2,299.29"
  },
  {
    "id_product": 31,
    "order_date": "2019-02-07",
    "price": "$3,487.27"
  },
  {
    "id_product": 38,
    "order_date": "2019-03-03",
    "price": "$1,002.65"
  },
  {
    "id_product": 26,
    "order_date": "2019-01-15",
    "price": "$3,334.74"
  },
  {
    "id_product": 33,
    "order_date": "2019-01-08",
    "price": "$2,575.15"
  },
  {
    "id_product": 27,
    "order_date": "2019-01-07",
    "price": "$2,220.00"
  },
  {
    "id_product": 23,
    "order_date": "2019-02-04",
    "price": "$1,697.15"
  },
  {
    "id_product": 22,
    "order_date": "2019-02-01",
    "price": "$1,250.90"
  },
  {
    "id_product": 37,
    "order_date": "2019-03-09",
    "price": "$3,816.30"
  },
  {
    "id_product": 26,
    "order_date": "2019-02-09",
    "price": "$3,751.78"
  },
  {
    "id_product": 31,
    "order_date": "2019-03-28",
    "price": "$3,451.10"
  },
  {
    "id_product": 20,
    "order_date": "2019-03-18",
    "price": "$2,395.48"
  },
  {
    "id_product": 28,
    "order_date": "2019-01-22",
    "price": "$2,080.97"
  },
  {
    "id_product": 30,
    "order_date": "2019-03-06",
    "price": "$3,776.27"
  },
  {
    "id_product": 32,
    "order_date": "2019-03-01",
    "price": "$1,074.09"
  },
  {
    "id_product": 29,
    "order_date": "2019-02-02",
    "price": "$2,829.12"
  },
  {
    "id_product": 27,
    "order_date": "2019-01-27",
    "price": "$1,311.55"
  },
  {
    "id_product": 36,
    "order_date": "2019-01-06",
    "price": "$3,795.59"
  },
  {
    "id_product": 21,
    "order_date": "2019-02-27",
    "price": "$3,643.31"
  },
  {
    "id_product": 22,
    "order_date": "2019-02-02",
    "price": "$1,029.84"
  },
  {
    "id_product": 24,
    "order_date": "2019-02-16",
    "price": "$2,339.11"
  },
  {
    "id_product": 35,
    "order_date": "2019-02-22",
    "price": "$2,725.72"
  },
  {
    "id_product": 27,
    "order_date": "2019-03-27",
    "price": "$3,434.87"
  },
  {
    "id_product": 21,
    "order_date": "2019-01-26",
    "price": "$1,632.67"
  },
  {
    "id_product": 28,
    "order_date": "2019-02-09",
    "price": "$2,123.19"
  },
  {
    "id_product": 34,
    "order_date": "2019-01-15",
    "price": "$3,367.41"
  },
  {
    "id_product": 26,
    "order_date": "2019-01-01",
    "price": "$1,791.94"
  },
  {
    "id_product": 22,
    "order_date": "2019-02-09",
    "price": "$3,351.38"
  },
  {
    "id_product": 40,
    "order_date": "2019-01-15",
    "price": "$1,660.92"
  },
  {
    "id_product": 40,
    "order_date": "2019-01-04",
    "price": "$3,151.43"
  },
  {
    "id_product": 33,
    "order_date": "2019-01-09",
    "price": "$2,482.08"
  },
  {
    "id_product": 25,
    "order_date": "2019-02-18",
    "price": "$1,197.50"
  },
  {
    "id_product": 37,
    "order_date": "2019-01-12",
    "price": "$3,201.05"
  },
  {
    "id_product": 20,
    "order_date": "2019-01-06",
    "price": "$3,505.73"
  },
  {
    "id_product": 36,
    "order_date": "2019-02-26",
    "price": "$1,608.31"
  },
  {
    "id_product": 20,
    "order_date": "2019-03-19",
    "price": "$2,780.72"
  },
  {
    "id_product": 37,
    "order_date": "2019-01-31",
    "price": "$3,448.23"
  },
  {
    "id_product": 30,
    "order_date": "2019-02-16",
    "price": "$2,513.34"
  },
  {
    "id_product": 25,
    "order_date": "2019-02-10",
    "price": "$1,000.37"
  },
  {
    "id_product": 40,
    "order_date": "2019-01-25",
    "price": "$2,612.86"
  },
  {
    "id_product": 32,
    "order_date": "2019-03-20",
    "price": "$2,238.19"
  },
  {
    "id_product": 38,
    "order_date": "2019-01-16",
    "price": "$2,453.34"
  },
  {
    "id_product": 34,
    "order_date": "2019-01-21",
    "price": "$2,589.95"
  },
  {
    "id_product": 21,
    "order_date": "2019-01-16",
    "price": "$3,921.50"
  },
  {
    "id_product": 28,
    "order_date": "2019-02-08",
    "price": "$3,994.39"
  },
  {
    "id_product": 35,
    "order_date": "2019-01-12",
    "price": "$2,529.45"
  },
  {
    "id_product": 21,
    "order_date": "2019-02-26",
    "price": "$1,830.55"
  },
  {
    "id_product": 34,
    "order_date": "2019-02-12",
    "price": "$3,500.96"
  },
  {
    "id_product": 39,
    "order_date": "2019-03-14",
    "price": "$2,389.18"
  },
  {
    "id_product": 23,
    "order_date": "2019-01-12",
    "price": "$2,007.20"
  },
  {
    "id_product": 38,
    "order_date": "2019-01-04",
    "price": "$1,626.10"
  },
  {
    "id_product": 29,
    "order_date": "2019-01-25",
    "price": "$1,893.09"
  },
  {
    "id_product": 20,
    "order_date": "2019-03-11",
    "price": "$2,391.74"
  },
  {
    "id_product": 27,
    "order_date": "2019-03-17",
    "price": "$3,855.14"
  },
  {
    "id_product": 22,
    "order_date": "2019-03-21",
    "price": "$1,733.07"
  },
  {
    "id_product": 28,
    "order_date": "2019-01-19",
    "price": "$3,874.91"
  },
  {
    "id_product": 33,
    "order_date": "2019-02-24",
    "price": "$1,702.03"
  },
  {
    "id_product": 20,
    "order_date": "2019-02-02",
    "price": "$3,898.15"
  },
  {
    "id_product": 22,
    "order_date": "2019-02-02",
    "price": "$2,353.72"
  },
  {
    "id_product": 31,
    "order_date": "2019-01-06",
    "price": "$1,673.24"
  },
  {
    "id_product": 38,
    "order_date": "2019-03-11",
    "price": "$1,552.48"
  },
  {
    "id_product": 20,
    "order_date": "2019-02-19",
    "price": "$2,254.92"
  },
  {
    "id_product": 37,
    "order_date": "2019-01-22",
    "price": "$3,159.10"
  },
  {
    "id_product": 31,
    "order_date": "2019-02-08",
    "price": "$3,047.92"
  },
  {
    "id_product": 31,
    "order_date": "2019-01-14",
    "price": "$1,813.94"
  },
  {
    "id_product": 35,
    "order_date": "2019-02-18",
    "price": "$3,112.80"
  },
  {
    "id_product": 32,
    "order_date": "2019-02-28",
    "price": "$2,209.56"
  },
  {
    "id_product": 22,
    "order_date": "2019-03-07",
    "price": "$3,369.26"
  },
  {
    "id_product": 31,
    "order_date": "2019-02-02",
    "price": "$1,923.36"
  },
  {
    "id_product": 28,
    "order_date": "2019-02-08",
    "price": "$1,613.36"
  },
  {
    "id_product": 39,
    "order_date": "2019-01-17",
    "price": "$1,370.26"
  },
  {
    "id_product": 20,
    "order_date": "2019-01-29",
    "price": "$1,138.01"
  },
  {
    "id_product": 24,
    "order_date": "2019-02-12",
    "price": "$1,130.58"
  },
  {
    "id_product": 28,
    "order_date": "2019-01-30",
    "price": "$2,403.49"
  },
  {
    "id_product": 22,
    "order_date": "2019-02-15",
    "price": "$3,036.91"
  },
  {
    "id_product": 23,
    "order_date": "2019-01-26",
    "price": "$1,177.57"
  },
  {
    "id_product": 33,
    "order_date": "2019-02-21",
    "price": "$3,745.49"
  },
  {
    "id_product": 27,
    "order_date": "2019-03-12",
    "price": "$2,139.41"
  },
  {
    "id_product": 23,
    "order_date": "2019-01-21",
    "price": "$1,698.93"
  },
  {
    "id_product": 28,
    "order_date": "2019-03-07",
    "price": "$2,309.96"
  },
  {
    "id_product": 26,
    "order_date": "2019-03-01",
    "price": "$1,389.05"
  },
  {
    "id_product": 33,
    "order_date": "2019-01-05",
    "price": "$2,183.56"
  },
  {
    "id_product": 24,
    "order_date": "2019-01-23",
    "price": "$3,463.85"
  },
  {
    "id_product": 37,
    "order_date": "2019-02-20",
    "price": "$2,054.41"
  },
  {
    "id_product": 37,
    "order_date": "2019-01-15",
    "price": "$2,530.67"
  },
  {
    "id_product": 35,
    "order_date": "2019-01-18",
    "price": "$2,519.90"
  },
  {
    "id_product": 31,
    "order_date": "2019-02-04",
    "price": "$3,804.67"
  },
  {
    "id_product": 31,
    "order_date": "2019-01-09",
    "price": "$3,774.30"
  },
  {
    "id_product": 31,
    "order_date": "2019-01-17",
    "price": "$1,368.46"
  },
  {
    "id_product": 31,
    "order_date": "2019-02-03",
    "price": "$2,000.79"
  },
  {
    "id_product": 39,
    "order_date": "2019-02-05",
    "price": "$1,363.57"
  },
  {
    "id_product": 29,
    "order_date": "2019-02-05",
    "price": "$3,285.62"
  },
  {
    "id_product": 26,
    "order_date": "2019-01-21",
    "price": "$3,455.56"
  },
  {
    "id_product": 35,
    "order_date": "2019-01-22",
    "price": "$3,213.21"
  },
  {
    "id_product": 35,
    "order_date": "2019-03-17",
    "price": "$2,773.34"
  },
  {
    "id_product": 34,
    "order_date": "2019-02-08",
    "price": "$3,380.99"
  },
  {
    "id_product": 33,
    "order_date": "2019-01-07",
    "price": "$3,672.83"
  },
  {
    "id_product": 37,
    "order_date": "2019-02-28",
    "price": "$3,616.39"
  },
  {
    "id_product": 37,
    "order_date": "2019-03-11",
    "price": "$2,890.29"
  },
  {
    "id_product": 32,
    "order_date": "2019-02-26",
    "price": "$3,900.01"
  },
  {
    "id_product": 29,
    "order_date": "2019-03-26",
    "price": "$3,373.57"
  },
  {
    "id_product": 20,
    "order_date": "2019-03-03",
    "price": "$1,085.20"
  },
  {
    "id_product": 31,
    "order_date": "2019-01-09",
    "price": "$3,232.88"
  },
  {
    "id_product": 28,
    "order_date": "2019-02-22",
    "price": "$2,287.90"
  },
  {
    "id_product": 28,
    "order_date": "2019-02-24",
    "price": "$2,464.08"
  },
  {
    "id_product": 31,
    "order_date": "2019-03-07",
    "price": "$2,648.61"
  },
  {
    "id_product": 32,
    "order_date": "2019-02-02",
    "price": "$2,682.57"
  },
  {
    "id_product": 40,
    "order_date": "2019-03-04",
    "price": "$2,000.69"
  },
  {
    "id_product": 29,
    "order_date": "2019-03-08",
    "price": "$2,933.02"
  },
  {
    "id_product": 36,
    "order_date": "2019-02-12",
    "price": "$3,585.29"
  },
  {
    "id_product": 27,
    "order_date": "2019-02-03",
    "price": "$1,587.78"
  },
  {
    "id_product": 20,
    "order_date": "2019-02-21",
    "price": "$2,203.10"
  },
  {
    "id_product": 39,
    "order_date": "2019-02-26",
    "price": "$3,291.48"
  },
  {
    "id_product": 25,
    "order_date": "2019-01-27",
    "price": "$1,727.32"
  },
  {
    "id_product": 39,
    "order_date": "2019-02-23",
    "price": "$1,575.85"
  },
  {
    "id_product": 31,
    "order_date": "2019-01-05",
    "price": "$3,841.58"
  },
  {
    "id_product": 29,
    "order_date": "2019-03-11",
    "price": "$1,032.57"
  },
  {
    "id_product": 34,
    "order_date": "2019-02-24",
    "price": "$1,895.42"
  },
  {
    "id_product": 33,
    "order_date": "2019-03-13",
    "price": "$3,876.55"
  },
  {
    "id_product": 34,
    "order_date": "2019-03-19",
    "price": "$2,471.94"
  },
  {
    "id_product": 29,
    "order_date": "2019-02-27",
    "price": "$2,556.63"
  },
  {
    "id_product": 27,
    "order_date": "2019-03-10",
    "price": "$2,362.40"
  },
  {
    "id_product": 28,
    "order_date": "2019-02-27",
    "price": "$2,373.94"
  },
  {
    "id_product": 27,
    "order_date": "2019-01-24",
    "price": "$3,898.63"
  },
  {
    "id_product": 24,
    "order_date": "2019-03-08",
    "price": "$2,793.44"
  },
  {
    "id_product": 29,
    "order_date": "2019-01-29",
    "price": "$3,401.54"
  },
  {
    "id_product": 22,
    "order_date": "2019-02-02",
    "price": "$2,196.91"
  },
  {
    "id_product": 26,
    "order_date": "2019-01-06",
    "price": "$1,386.03"
  },
  {
    "id_product": 24,
    "order_date": "2019-03-10",
    "price": "$1,208.00"
  },
  {
    "id_product": 21,
    "order_date": "2019-03-26",
    "price": "$3,202.93"
  },
  {
    "id_product": 25,
    "order_date": "2019-02-24",
    "price": "$3,836.81"
  },
  {
    "id_product": 28,
    "order_date": "2019-02-08",
    "price": "$2,783.10"
  },
  {
    "id_product": 25,
    "order_date": "2019-01-29",
    "price": "$1,443.69"
  },
  {
    "id_product": 30,
    "order_date": "2019-02-23",
    "price": "$3,934.89"
  },
  {
    "id_product": 33,
    "order_date": "2019-03-20",
    "price": "$2,615.07"
  },
  {
    "id_product": 34,
    "order_date": "2019-01-10",
    "price": "$1,418.30"
  },
  {
    "id_product": 28,
    "order_date": "2019-03-07",
    "price": "$2,601.94"
  },
  {
    "id_product": 35,
    "order_date": "2019-03-16",
    "price": "$2,887.17"
  },
  {
    "id_product": 31,
    "order_date": "2019-01-16",
    "price": "$3,961.20"
  },
  {
    "id_product": 38,
    "order_date": "2019-01-17",
    "price": "$2,999.95"
  },
  {
    "id_product": 29,
    "order_date": "2019-01-08",
    "price": "$1,162.20"
  },
  {
    "id_product": 38,
    "order_date": "2019-02-16",
    "price": "$1,159.83"
  },
  {
    "id_product": 28,
    "order_date": "2019-01-29",
    "price": "$3,103.53"
  },
  {
    "id_product": 38,
    "order_date": "2019-02-11",
    "price": "$1,656.13"
  },
  {
    "id_product": 35,
    "order_date": "2019-01-09",
    "price": "$2,317.86"
  },
  {
    "id_product": 30,
    "order_date": "2019-02-01",
    "price": "$1,634.80"
  },
  {
    "id_product": 35,
    "order_date": "2019-03-11",
    "price": "$1,684.73"
  },
  {
    "id_product": 34,
    "order_date": "2019-02-19",
    "price": "$2,884.62"
  },
  {
    "id_product": 32,
    "order_date": "2019-01-23",
    "price": "$1,842.16"
  },
  {
    "id_product": 21,
    "order_date": "2019-02-25",
    "price": "$2,048.65"
  },
  {
    "id_product": 21,
    "order_date": "2019-03-19",
    "price": "$1,293.59"
  },
  {
    "id_product": 27,
    "order_date": "2019-02-04",
    "price": "$1,163.94"
  },
  {
    "id_product": 38,
    "order_date": "2019-01-27",
    "price": "$1,436.55"
  },
  {
    "id_product": 37,
    "order_date": "2019-01-21",
    "price": "$3,460.59"
  },
  {
    "id_product": 24,
    "order_date": "2019-01-04",
    "price": "$2,162.27"
  },
  {
    "id_product": 26,
    "order_date": "2019-01-27",
    "price": "$1,469.26"
  },
  {
    "id_product": 34,
    "order_date": "2019-01-14",
    "price": "$2,499.82"
  },
  {
    "id_product": 38,
    "order_date": "2019-03-09",
    "price": "$2,743.07"
  },
  {
    "id_product": 37,
    "order_date": "2019-01-14",
    "price": "$1,301.75"
  },
  {
    "id_product": 27,
    "order_date": "2019-02-02",
    "price": "$2,543.06"
  },
  {
    "id_product": 37,
    "order_date": "2019-02-21",
    "price": "$1,702.06"
  },
  {
    "id_product": 31,
    "order_date": "2019-01-04",
    "price": "$2,059.32"
  },
  {
    "id_product": 23,
    "order_date": "2019-03-20",
    "price": "$2,867.07"
  },
  {
    "id_product": 20,
    "order_date": "2019-01-09",
    "price": "$1,317.98"
  },
  {
    "id_product": 38,
    "order_date": "2019-02-21",
    "price": "$3,140.06"
  },
  {
    "id_product": 32,
    "order_date": "2019-03-20",
    "price": "$1,078.97"
  },
  {
    "id_product": 20,
    "order_date": "2019-01-01",
    "price": "$2,553.20"
  },
  {
    "id_product": 25,
    "order_date": "2019-01-24",
    "price": "$2,464.03"
  },
  {
    "id_product": 37,
    "order_date": "2019-02-23",
    "price": "$3,184.50"
  },
  {
    "id_product": 20,
    "order_date": "2019-03-12",
    "price": "$3,690.87"
  },
  {
    "id_product": 33,
    "order_date": "2019-01-05",
    "price": "$3,036.35"
  },
  {
    "id_product": 26,
    "order_date": "2019-03-20",
    "price": "$3,305.42"
  },
  {
    "id_product": 38,
    "order_date": "2019-01-29",
    "price": "$2,288.93"
  },
  {
    "id_product": 29,
    "order_date": "2019-01-12",
    "price": "$2,354.39"
  },
  {
    "id_product": 27,
    "order_date": "2019-02-06",
    "price": "$1,621.84"
  },
  {
    "id_product": 37,
    "order_date": "2019-03-03",
    "price": "$3,025.25"
  },
  {
    "id_product": 38,
    "order_date": "2019-02-02",
    "price": "$2,421.32"
  },
  {
    "id_product": 35,
    "order_date": "2019-01-05",
    "price": "$2,141.05"
  },
  {
    "id_product": 32,
    "order_date": "2019-02-09",
    "price": "$3,705.19"
  },
  {
    "id_product": 22,
    "order_date": "2019-01-07",
    "price": "$1,556.85"
  },
  {
    "id_product": 23,
    "order_date": "2019-01-26",
    "price": "$1,806.88"
  },
  {
    "id_product": 40,
    "order_date": "2019-01-01",
    "price": "$3,297.32"
  },
  {
    "id_product": 37,
    "order_date": "2019-03-04",
    "price": "$1,952.45"
  },
  {
    "id_product": 32,
    "order_date": "2019-01-08",
    "price": "$1,862.93"
  },
  {
    "id_product": 39,
    "order_date": "2019-01-07",
    "price": "$2,641.59"
  },
  {
    "id_product": 32,
    "order_date": "2019-03-14",
    "price": "$1,809.78"
  },
  {
    "id_product": 20,
    "order_date": "2019-02-09",
    "price": "$2,510.96"
  },
  {
    "id_product": 37,
    "order_date": "2019-02-17",
    "price": "$1,993.39"
  },
  {
    "id_product": 33,
    "order_date": "2019-03-27",
    "price": "$3,620.43"
  },
  {
    "id_product": 30,
    "order_date": "2019-02-07",
    "price": "$3,685.09"
  },
  {
    "id_product": 20,
    "order_date": "2019-02-03",
    "price": "$1,244.54"
  },
  {
    "id_product": 31,
    "order_date": "2019-02-01",
    "price": "$1,066.31"
  },
  {
    "id_product": 34,
    "order_date": "2019-02-05",
    "price": "$2,532.26"
  },
  {
    "id_product": 31,
    "order_date": "2019-01-29",
    "price": "$3,582.53"
  },
  {
    "id_product": 38,
    "order_date": "2019-01-15",
    "price": "$2,366.51"
  },
  {
    "id_product": 36,
    "order_date": "2019-03-11",
    "price": "$3,411.75"
  },
  {
    "id_product": 35,
    "order_date": "2019-03-11",
    "price": "$3,026.93"
  },
  {
    "id_product": 24,
    "order_date": "2019-01-21",
    "price": "$1,093.07"
  },
  {
    "id_product": 30,
    "order_date": "2019-01-15",
    "price": "$1,888.09"
  },
  {
    "id_product": 32,
    "order_date": "2019-03-03",
    "price": "$1,852.05"
  },
  {
    "id_product": 28,
    "order_date": "2019-01-24",
    "price": "$2,338.42"
  },
  {
    "id_product": 27,
    "order_date": "2019-01-12",
    "price": "$1,770.17"
  },
  {
    "id_product": 23,
    "order_date": "2019-03-07",
    "price": "$2,415.91"
  },
  {
    "id_product": 23,
    "order_date": "2019-03-26",
    "price": "$3,807.83"
  },
  {
    "id_product": 36,
    "order_date": "2019-03-13",
    "price": "$2,128.23"
  },
  {
    "id_product": 20,
    "order_date": "2019-01-10",
    "price": "$2,743.19"
  },
  {
    "id_product": 22,
    "order_date": "2019-02-12",
    "price": "$3,336.46"
  },
  {
    "id_product": 31,
    "order_date": "2019-03-21",
    "price": "$3,909.62"
  },
  {
    "id_product": 21,
    "order_date": "2019-02-28",
    "price": "$1,694.37"
  },
  {
    "id_product": 31,
    "order_date": "2019-03-24",
    "price": "$2,860.32"
  },
  {
    "id_product": 25,
    "order_date": "2019-03-10",
    "price": "$2,217.56"
  },
  {
    "id_product": 37,
    "order_date": "2019-02-07",
    "price": "$3,801.02"
  },
  {
    "id_product": 40,
    "order_date": "2019-01-18",
    "price": "$1,589.73"
  },
  {
    "id_product": 28,
    "order_date": "2019-02-07",
    "price": "$2,347.93"
  },
  {
    "id_product": 25,
    "order_date": "2019-02-10",
    "price": "$1,784.73"
  },
  {
    "id_product": 26,
    "order_date": "2019-01-11",
    "price": "$1,443.35"
  },
  {
    "id_product": 33,
    "order_date": "2019-03-08",
    "price": "$3,507.53"
  },
  {
    "id_product": 21,
    "order_date": "2019-02-02",
    "price": "$2,545.41"
  },
  {
    "id_product": 34,
    "order_date": "2019-01-20",
    "price": "$1,919.83"
  },
  {
    "id_product": 28,
    "order_date": "2019-01-08",
    "price": "$1,964.47"
  },
  {
    "id_product": 22,
    "order_date": "2019-01-03",
    "price": "$1,540.09"
  },
  {
    "id_product": 22,
    "order_date": "2019-01-31",
    "price": "$1,341.38"
  },
  {
    "id_product": 23,
    "order_date": "2019-03-22",
    "price": "$2,185.88"
  },
  {
    "id_product": 23,
    "order_date": "2019-02-18",
    "price": "$2,798.51"
  },
  {
    "id_product": 23,
    "order_date": "2019-01-21",
    "price": "$2,257.57"
  },
  {
    "id_product": 23,
    "order_date": "2019-03-21",
    "price": "$2,570.91"
  },
  {
    "id_product": 27,
    "order_date": "2019-02-22",
    "price": "$1,837.66"
  },
  {
    "id_product": 33,
    "order_date": "2019-01-14",
    "price": "$2,957.08"
  },
  {
    "id_product": 34,
    "order_date": "2019-02-13",
    "price": "$3,970.73"
  },
  {
    "id_product": 26,
    "order_date": "2019-03-27",
    "price": "$3,884.53"
  },
  {
    "id_product": 34,
    "order_date": "2019-01-10",
    "price": "$1,142.53"
  },
  {
    "id_product": 28,
    "order_date": "2019-03-10",
    "price": "$1,103.75"
  },
  {
    "id_product": 28,
    "order_date": "2019-03-25",
    "price": "$2,165.35"
  },
  {
    "id_product": 36,
    "order_date": "2019-01-31",
    "price": "$3,371.55"
  },
  {
    "id_product": 32,
    "order_date": "2019-01-12",
    "price": "$1,419.15"
  },
  {
    "id_product": 22,
    "order_date": "2019-01-01",
    "price": "$3,282.53"
  },
  {
    "id_product": 23,
    "order_date": "2019-03-21",
    "price": "$3,325.56"
  },
  {
    "id_product": 36,
    "order_date": "2019-01-26",
    "price": "$3,488.91"
  },
  {
    "id_product": 20,
    "order_date": "2019-01-17",
    "price": "$1,276.02"
  },
  {
    "id_product": 34,
    "order_date": "2019-02-23",
    "price": "$1,720.68"
  },
  {
    "id_product": 35,
    "order_date": "2019-01-16",
    "price": "$1,100.83"
  },
  {
    "id_product": 29,
    "order_date": "2019-01-23",
    "price": "$2,494.31"
  },
  {
    "id_product": 25,
    "order_date": "2019-03-17",
    "price": "$2,520.83"
  },
  {
    "id_product": 33,
    "order_date": "2019-03-15",
    "price": "$2,185.38"
  },
  {
    "id_product": 37,
    "order_date": "2019-01-04",
    "price": "$1,580.04"
  },
  {
    "id_product": 37,
    "order_date": "2019-01-23",
    "price": "$3,776.04"
  },
  {
    "id_product": 32,
    "order_date": "2019-03-05",
    "price": "$2,798.54"
  },
  {
    "id_product": 34,
    "order_date": "2019-01-27",
    "price": "$1,479.90"
  },
  {
    "id_product": 25,
    "order_date": "2019-01-15",
    "price": "$3,763.61"
  },
  {
    "id_product": 38,
    "order_date": "2019-03-04",
    "price": "$1,774.52"
  },
  {
    "id_product": 30,
    "order_date": "2019-03-05",
    "price": "$3,633.28"
  },
  {
    "id_product": 37,
    "order_date": "2019-03-04",
    "price": "$2,968.51"
  },
  {
    "id_product": 24,
    "order_date": "2019-02-10",
    "price": "$3,987.94"
  },
  {
    "id_product": 33,
    "order_date": "2019-01-12",
    "price": "$2,912.86"
  },
  {
    "id_product": 40,
    "order_date": "2019-03-04",
    "price": "$2,274.24"
  },
  {
    "id_product": 23,
    "order_date": "2019-01-14",
    "price": "$3,947.39"
  },
  {
    "id_product": 37,
    "order_date": "2019-03-07",
    "price": "$3,567.48"
  },
  {
    "id_product": 31,
    "order_date": "2019-03-17",
    "price": "$3,596.75"
  },
  {
    "id_product": 38,
    "order_date": "2019-03-06",
    "price": "$2,975.40"
  },
  {
    "id_product": 20,
    "order_date": "2019-03-22",
    "price": "$2,877.88"
  },
  {
    "id_product": 28,
    "order_date": "2019-03-14",
    "price": "$2,493.63"
  },
  {
    "id_product": 32,
    "order_date": "2019-02-25",
    "price": "$2,784.86"
  },
  {
    "id_product": 21,
    "order_date": "2019-02-28",
    "price": "$3,638.73"
  },
  {
    "id_product": 35,
    "order_date": "2019-02-21",
    "price": "$3,031.30"
  },
  {
    "id_product": 35,
    "order_date": "2019-01-24",
    "price": "$2,163.41"
  },
  {
    "id_product": 32,
    "order_date": "2019-02-23",
    "price": "$3,808.38"
  },
  {
    "id_product": 29,
    "order_date": "2019-02-17",
    "price": "$2,790.00"
  },
  {
    "id_product": 21,
    "order_date": "2019-01-08",
    "price": "$3,092.21"
  },
  {
    "id_product": 30,
    "order_date": "2019-01-03",
    "price": "$1,134.72"
  },
  {
    "id_product": 39,
    "order_date": "2019-02-16",
    "price": "$2,507.31"
  },
  {
    "id_product": 34,
    "order_date": "2019-01-15",
    "price": "$3,519.87"
  },
  {
    "id_product": 40,
    "order_date": "2019-01-26",
    "price": "$2,709.35"
  },
  {
    "id_product": 40,
    "order_date": "2019-01-28",
    "price": "$3,682.66"
  },
  {
    "id_product": 22,
    "order_date": "2019-01-11",
    "price": "$1,411.42"
  },
  {
    "id_product": 22,
    "order_date": "2019-01-24",
    "price": "$1,974.19"
  },
  {
    "id_product": 37,
    "order_date": "2019-01-03",
    "price": "$2,445.87"
  },
  {
    "id_product": 24,
    "order_date": "2019-03-22",
    "price": "$1,199.07"
  },
  {
    "id_product": 30,
    "order_date": "2019-03-14",
    "price": "$3,873.07"
  },
  {
    "id_product": 38,
    "order_date": "2019-03-13",
    "price": "$3,157.58"
  },
  {
    "id_product": 40,
    "order_date": "2019-02-16",
    "price": "$3,144.44"
  },
  {
    "id_product": 20,
    "order_date": "2019-03-22",
    "price": "$3,841.11"
  },
  {
    "id_product": 38,
    "order_date": "2019-02-20",
    "price": "$1,443.22"
  },
  {
    "id_product": 27,
    "order_date": "2019-01-28",
    "price": "$2,767.46"
  },
  {
    "id_product": 35,
    "order_date": "2019-01-02",
    "price": "$1,789.94"
  },
  {
    "id_product": 27,
    "order_date": "2019-03-13",
    "price": "$1,933.67"
  },
  {
    "id_product": 33,
    "order_date": "2019-01-31",
    "price": "$3,991.30"
  },
  {
    "id_product": 27,
    "order_date": "2019-01-02",
    "price": "$1,069.62"
  },
  {
    "id_product": 21,
    "order_date": "2019-03-02",
    "price": "$3,233.88"
  },
  {
    "id_product": 35,
    "order_date": "2019-02-17",
    "price": "$3,168.42"
  },
  {
    "id_product": 24,
    "order_date": "2019-01-07",
    "price": "$2,148.82"
  },
  {
    "id_product": 27,
    "order_date": "2019-03-16",
    "price": "$2,503.49"
  },
  {
    "id_product": 32,
    "order_date": "2019-02-08",
    "price": "$1,102.90"
  },
  {
    "id_product": 23,
    "order_date": "2019-01-07",
    "price": "$1,343.28"
  },
  {
    "id_product": 31,
    "order_date": "2019-02-13",
    "price": "$3,066.08"
  },
  {
    "id_product": 34,
    "order_date": "2019-01-25",
    "price": "$1,227.72"
  },
  {
    "id_product": 24,
    "order_date": "2019-02-18",
    "price": "$1,070.52"
  },
  {
    "id_product": 24,
    "order_date": "2019-02-03",
    "price": "$3,806.28"
  },
  {
    "id_product": 25,
    "order_date": "2019-01-27",
    "price": "$3,289.21"
  },
  {
    "id_product": 29,
    "order_date": "2019-03-28",
    "price": "$3,957.24"
  },
  {
    "id_product": 28,
    "order_date": "2019-02-03",
    "price": "$2,085.69"
  },
  {
    "id_product": 27,
    "order_date": "2019-01-31",
    "price": "$1,564.53"
  },
  {
    "id_product": 26,
    "order_date": "2019-03-03",
    "price": "$3,071.91"
  },
  {
    "id_product": 22,
    "order_date": "2019-01-10",
    "price": "$3,214.02"
  },
  {
    "id_product": 27,
    "order_date": "2019-02-17",
    "price": "$3,742.58"
  },
  {
    "id_product": 30,
    "order_date": "2019-02-06",
    "price": "$2,024.62"
  },
  {
    "id_product": 33,
    "order_date": "2019-01-27",
    "price": "$3,739.66"
  },
  {
    "id_product": 36,
    "order_date": "2019-01-01",
    "price": "$3,916.69"
  },
  {
    "id_product": 22,
    "order_date": "2019-03-08",
    "price": "$3,169.70"
  },
  {
    "id_product": 40,
    "order_date": "2019-01-13",
    "price": "$2,635.78"
  },
  {
    "id_product": 28,
    "order_date": "2019-01-25",
    "price": "$1,043.69"
  },
  {
    "id_product": 35,
    "order_date": "2019-02-23",
    "price": "$3,138.73"
  },
  {
    "id_product": 32,
    "order_date": "2019-02-28",
    "price": "$2,457.94"
  },
  {
    "id_product": 36,
    "order_date": "2019-03-19",
    "price": "$1,085.47"
  },
  {
    "id_product": 20,
    "order_date": "2019-03-26",
    "price": "$3,443.00"
  },
  {
    "id_product": 20,
    "order_date": "2019-03-05",
    "price": "$1,934.95"
  },
  {
    "id_product": 28,
    "order_date": "2019-01-15",
    "price": "$3,250.44"
  },
  {
    "id_product": 22,
    "order_date": "2019-02-27",
    "price": "$1,614.27"
  },
  {
    "id_product": 20,
    "order_date": "2019-01-24",
    "price": "$1,051.40"
  },
  {
    "id_product": 25,
    "order_date": "2019-01-06",
    "price": "$3,144.81"
  },
  {
    "id_product": 30,
    "order_date": "2019-02-10",
    "price": "$2,719.08"
  },
  {
    "id_product": 23,
    "order_date": "2019-01-13",
    "price": "$1,663.33"
  },
  {
    "id_product": 22,
    "order_date": "2019-03-17",
    "price": "$3,172.12"
  },
  {
    "id_product": 20,
    "order_date": "2019-03-24",
    "price": "$3,191.85"
  },
  {
    "id_product": 37,
    "order_date": "2019-01-09",
    "price": "$1,643.83"
  },
  {
    "id_product": 27,
    "order_date": "2019-03-22",
    "price": "$3,067.41"
  },
  {
    "id_product": 39,
    "order_date": "2019-02-06",
    "price": "$3,733.79"
  },
  {
    "id_product": 34,
    "order_date": "2019-02-15",
    "price": "$2,527.06"
  },
  {
    "id_product": 20,
    "order_date": "2019-01-17",
    "price": "$2,267.95"
  },
  {
    "id_product": 26,
    "order_date": "2019-02-10",
    "price": "$1,671.23"
  },
  {
    "id_product": 34,
    "order_date": "2019-02-27",
    "price": "$3,106.28"
  },
  {
    "id_product": 23,
    "order_date": "2019-01-07",
    "price": "$2,322.50"
  },
  {
    "id_product": 30,
    "order_date": "2019-03-04",
    "price": "$3,817.99"
  },
  {
    "id_product": 36,
    "order_date": "2019-02-21",
    "price": "$1,202.00"
  },
  {
    "id_product": 34,
    "order_date": "2019-02-26",
    "price": "$3,765.62"
  },
  {
    "id_product": 24,
    "order_date": "2019-03-13",
    "price": "$1,315.76"
  },
  {
    "id_product": 31,
    "order_date": "2019-03-18",
    "price": "$3,638.53"
  },
  {
    "id_product": 38,
    "order_date": "2019-01-23",
    "price": "$3,132.09"
  },
  {
    "id_product": 35,
    "order_date": "2019-02-23",
    "price": "$1,733.38"
  },
  {
    "id_product": 36,
    "order_date": "2019-03-01",
    "price": "$3,716.83"
  },
  {
    "id_product": 23,
    "order_date": "2019-01-03",
    "price": "$2,473.10"
  },
  {
    "id_product": 35,
    "order_date": "2019-03-14",
    "price": "$2,991.89"
  },
  {
    "id_product": 20,
    "order_date": "2019-02-07",
    "price": "$2,695.98"
  },
  {
    "id_product": 24,
    "order_date": "2019-01-17",
    "price": "$2,196.99"
  },
  {
    "id_product": 26,
    "order_date": "2019-02-16",
    "price": "$2,442.12"
  },
  {
    "id_product": 29,
    "order_date": "2019-03-09",
    "price": "$1,328.69"
  },
  {
    "id_product": 34,
    "order_date": "2019-01-04",
    "price": "$2,077.61"
  },
  {
    "id_product": 31,
    "order_date": "2019-02-05",
    "price": "$1,240.12"
  },
  {
    "id_product": 31,
    "order_date": "2019-02-13",
    "price": "$2,396.33"
  },
  {
    "id_product": 32,
    "order_date": "2019-02-23",
    "price": "$3,417.53"
  },
  {
    "id_product": 36,
    "order_date": "2019-03-23",
    "price": "$1,553.86"
  },
  {
    "id_product": 29,
    "order_date": "2019-02-22",
    "price": "$2,457.48"
  },
  {
    "id_product": 22,
    "order_date": "2019-01-17",
    "price": "$3,419.72"
  },
  {
    "id_product": 34,
    "order_date": "2019-02-21",
    "price": "$3,788.59"
  },
  {
    "id_product": 22,
    "order_date": "2019-02-05",
    "price": "$1,725.09"
  },
  {
    "id_product": 22,
    "order_date": "2019-02-16",
    "price": "$1,360.04"
  },
  {
    "id_product": 22,
    "order_date": "2019-02-14",
    "price": "$3,026.67"
  },
  {
    "id_product": 38,
    "order_date": "2019-03-17",
    "price": "$2,150.80"
  },
  {
    "id_product": 24,
    "order_date": "2019-03-03",
    "price": "$1,609.35"
  },
  {
    "id_product": 28,
    "order_date": "2019-03-04",
    "price": "$1,922.89"
  },
  {
    "id_product": 38,
    "order_date": "2019-02-26",
    "price": "$3,099.47"
  },
  {
    "id_product": 28,
    "order_date": "2019-03-27",
    "price": "$1,185.98"
  },
  {
    "id_product": 29,
    "order_date": "2019-02-05",
    "price": "$2,541.60"
  },
  {
    "id_product": 29,
    "order_date": "2019-02-21",
    "price": "$3,356.91"
  },
  {
    "id_product": 26,
    "order_date": "2019-01-06",
    "price": "$1,650.31"
  },
  {
    "id_product": 26,
    "order_date": "2019-01-27",
    "price": "$2,527.05"
  },
  {
    "id_product": 31,
    "order_date": "2019-02-18",
    "price": "$1,804.92"
  },
  {
    "id_product": 22,
    "order_date": "2019-03-17",
    "price": "$1,665.95"
  },
  {
    "id_product": 21,
    "order_date": "2019-02-27",
    "price": "$2,262.03"
  },
  {
    "id_product": 32,
    "order_date": "2019-02-03",
    "price": "$1,424.07"
  },
  {
    "id_product": 33,
    "order_date": "2019-01-13",
    "price": "$2,670.76"
  },
  {
    "id_product": 34,
    "order_date": "2019-02-11",
    "price": "$3,354.42"
  },
  {
    "id_product": 35,
    "order_date": "2019-01-14",
    "price": "$1,496.18"
  },
  {
    "id_product": 38,
    "order_date": "2019-01-07",
    "price": "$3,808.68"
  },
  {
    "id_product": 26,
    "order_date": "2019-01-07",
    "price": "$3,585.52"
  },
  {
    "id_product": 36,
    "order_date": "2019-02-03",
    "price": "$2,471.15"
  },
  {
    "id_product": 21,
    "order_date": "2019-01-30",
    "price": "$1,322.48"
  },
  {
    "id_product": 24,
    "order_date": "2019-02-27",
    "price": "$3,448.85"
  },
  {
    "id_product": 21,
    "order_date": "2019-01-17",
    "price": "$2,595.25"
  },
  {
    "id_product": 21,
    "order_date": "2019-01-25",
    "price": "$1,495.55"
  },
  {
    "id_product": 26,
    "order_date": "2019-01-16",
    "price": "$3,635.40"
  },
  {
    "id_product": 34,
    "order_date": "2019-03-18",
    "price": "$1,650.50"
  },
  {
    "id_product": 37,
    "order_date": "2019-02-09",
    "price": "$3,016.90"
  },
  {
    "id_product": 20,
    "order_date": "2019-01-25",
    "price": "$3,313.21"
  },
  {
    "id_product": 24,
    "order_date": "2019-02-03",
    "price": "$3,463.58"
  },
  {
    "id_product": 25,
    "order_date": "2019-02-16",
    "price": "$3,658.84"
  },
  {
    "id_product": 40,
    "order_date": "2019-01-11",
    "price": "$2,503.79"
  },
  {
    "id_product": 39,
    "order_date": "2019-02-10",
    "price": "$2,335.09"
  },
  {
    "id_product": 35,
    "order_date": "2019-03-10",
    "price": "$2,645.13"
  },
  {
    "id_product": 27,
    "order_date": "2019-01-02",
    "price": "$1,858.94"
  },
  {
    "id_product": 34,
    "order_date": "2019-02-18",
    "price": "$1,906.36"
  },
  {
    "id_product": 28,
    "order_date": "2019-01-09",
    "price": "$1,636.08"
  },
  {
    "id_product": 39,
    "order_date": "2019-02-12",
    "price": "$2,755.17"
  },
  {
    "id_product": 20,
    "order_date": "2019-03-05",
    "price": "$1,417.89"
  },
  {
    "id_product": 28,
    "order_date": "2019-01-17",
    "price": "$3,017.18"
  },
  {
    "id_product": 23,
    "order_date": "2019-01-21",
    "price": "$1,783.27"
  },
  {
    "id_product": 26,
    "order_date": "2019-01-24",
    "price": "$3,032.53"
  },
  {
    "id_product": 36,
    "order_date": "2019-01-30",
    "price": "$2,403.77"
  },
  {
    "id_product": 23,
    "order_date": "2019-03-12",
    "price": "$3,785.55"
  },
  {
    "id_product": 34,
    "order_date": "2019-03-22",
    "price": "$1,076.84"
  },
  {
    "id_product": 26,
    "order_date": "2019-02-03",
    "price": "$2,903.98"
  },
  {
    "id_product": 26,
    "order_date": "2019-01-14",
    "price": "$3,310.17"
  },
  {
    "id_product": 27,
    "order_date": "2019-02-13",
    "price": "$3,652.15"
  },
  {
    "id_product": 22,
    "order_date": "2019-02-06",
    "price": "$3,380.47"
  },
  {
    "id_product": 22,
    "order_date": "2019-03-28",
    "price": "$2,124.74"
  },
  {
    "id_product": 28,
    "order_date": "2019-03-17",
    "price": "$2,087.32"
  },
  {
    "id_product": 33,
    "order_date": "2019-02-03",
    "price": "$1,582.70"
  },
  {
    "id_product": 31,
    "order_date": "2019-02-12",
    "price": "$3,423.75"
  },
  {
    "id_product": 26,
    "order_date": "2019-02-18",
    "price": "$3,189.32"
  },
  {
    "id_product": 36,
    "order_date": "2019-01-18",
    "price": "$2,523.24"
  },
  {
    "id_product": 38,
    "order_date": "2019-03-08",
    "price": "$3,772.47"
  },
  {
    "id_product": 23,
    "order_date": "2019-01-15",
    "price": "$3,042.80"
  },
  {
    "id_product": 26,
    "order_date": "2019-02-04",
    "price": "$3,005.76"
  },
  {
    "id_product": 33,
    "order_date": "2019-01-21",
    "price": "$2,669.49"
  },
  {
    "id_product": 25,
    "order_date": "2019-02-21",
    "price": "$1,072.01"
  },
  {
    "id_product": 23,
    "order_date": "2019-03-25",
    "price": "$2,663.15"
  },
  {
    "id_product": 27,
    "order_date": "2019-03-08",
    "price": "$3,079.41"
  },
  {
    "id_product": 20,
    "order_date": "2019-02-16",
    "price": "$2,348.60"
  },
  {
    "id_product": 23,
    "order_date": "2019-02-18",
    "price": "$1,628.73"
  },
  {
    "id_product": 20,
    "order_date": "2019-02-28",
    "price": "$1,231.86"
  },
  {
    "id_product": 27,
    "order_date": "2019-02-23",
    "price": "$1,938.55"
  },
  {
    "id_product": 27,
    "order_date": "2019-03-03",
    "price": "$2,996.39"
  },
  {
    "id_product": 22,
    "order_date": "2019-01-29",
    "price": "$2,803.88"
  },
  {
    "id_product": 31,
    "order_date": "2019-02-01",
    "price": "$2,587.77"
  },
  {
    "id_product": 28,
    "order_date": "2019-01-15",
    "price": "$1,420.32"
  },
  {
    "id_product": 23,
    "order_date": "2019-03-18",
    "price": "$1,538.68"
  },
  {
    "id_product": 28,
    "order_date": "2019-02-12",
    "price": "$3,597.00"
  },
  {
    "id_product": 27,
    "order_date": "2019-03-10",
    "price": "$3,393.66"
  },
  {
    "id_product": 33,
    "order_date": "2019-02-20",
    "price": "$3,179.49"
  },
  {
    "id_product": 23,
    "order_date": "2019-02-26",
    "price": "$2,140.03"
  },
  {
    "id_product": 37,
    "order_date": "2019-02-09",
    "price": "$3,986.43"
  },
  {
    "id_product": 35,
    "order_date": "2019-02-22",
    "price": "$2,799.07"
  },
  {
    "id_product": 35,
    "order_date": "2019-02-02",
    "price": "$3,600.01"
  },
  {
    "id_product": 31,
    "order_date": "2019-03-02",
    "price": "$2,567.47"
  },
  {
    "id_product": 31,
    "order_date": "2019-01-09",
    "price": "$1,104.34"
  },
  {
    "id_product": 29,
    "order_date": "2019-02-12",
    "price": "$1,256.26"
  },
  {
    "id_product": 25,
    "order_date": "2019-03-28",
    "price": "$3,618.93"
  },
  {
    "id_product": 37,
    "order_date": "2019-02-05",
    "price": "$1,567.77"
  },
  {
    "id_product": 22,
    "order_date": "2019-03-19",
    "price": "$2,578.64"
  },
  {
    "id_product": 32,
    "order_date": "2019-03-10",
    "price": "$3,962.76"
  },
  {
    "id_product": 36,
    "order_date": "2019-01-17",
    "price": "$3,623.77"
  },
  {
    "id_product": 39,
    "order_date": "2019-03-07",
    "price": "$2,582.00"
  },
  {
    "id_product": 40,
    "order_date": "2019-01-21",
    "price": "$2,425.04"
  },
  {
    "id_product": 40,
    "order_date": "2019-02-12",
    "price": "$2,676.46"
  },
  {
    "id_product": 31,
    "order_date": "2019-03-19",
    "price": "$2,389.47"
  },
  {
    "id_product": 30,
    "order_date": "2019-03-11",
    "price": "$3,252.71"
  },
  {
    "id_product": 27,
    "order_date": "2019-03-21",
    "price": "$2,520.76"
  },
  {
    "id_product": 23,
    "order_date": "2019-03-23",
    "price": "$3,174.50"
  },
  {
    "id_product": 40,
    "order_date": "2019-02-11",
    "price": "$3,389.11"
  },
  {
    "id_product": 23,
    "order_date": "2019-01-08",
    "price": "$3,407.09"
  },
  {
    "id_product": 28,
    "order_date": "2019-03-20",
    "price": "$2,436.81"
  },
  {
    "id_product": 31,
    "order_date": "2019-01-02",
    "price": "$1,722.18"
  },
  {
    "id_product": 35,
    "order_date": "2019-02-25",
    "price": "$2,829.68"
  },
  {
    "id_product": 24,
    "order_date": "2019-01-26",
    "price": "$1,945.78"
  },
  {
    "id_product": 23,
    "order_date": "2019-02-25",
    "price": "$2,780.78"
  },
  {
    "id_product": 34,
    "order_date": "2019-03-14",
    "price": "$1,527.02"
  },
  {
    "id_product": 34,
    "order_date": "2019-02-07",
    "price": "$3,029.35"
  },
  {
    "id_product": 38,
    "order_date": "2019-02-03",
    "price": "$1,715.83"
  },
  {
    "id_product": 30,
    "order_date": "2019-03-26",
    "price": "$1,189.90"
  },
  {
    "id_product": 22,
    "order_date": "2019-03-03",
    "price": "$1,336.00"
  },
  {
    "id_product": 30,
    "order_date": "2019-03-13",
    "price": "$1,756.98"
  },
  {
    "id_product": 31,
    "order_date": "2019-03-13",
    "price": "$3,544.93"
  },
  {
    "id_product": 40,
    "order_date": "2019-01-07",
    "price": "$1,681.18"
  },
  {
    "id_product": 33,
    "order_date": "2019-02-07",
    "price": "$1,342.84"
  },
  {
    "id_product": 27,
    "order_date": "2019-03-13",
    "price": "$1,395.10"
  },
  {
    "id_product": 37,
    "order_date": "2019-02-09",
    "price": "$1,765.95"
  },
  {
    "id_product": 27,
    "order_date": "2019-02-08",
    "price": "$2,572.19"
  },
  {
    "id_product": 33,
    "order_date": "2019-01-27",
    "price": "$2,073.90"
  },
  {
    "id_product": 37,
    "order_date": "2019-02-19",
    "price": "$2,525.90"
  },
  {
    "id_product": 22,
    "order_date": "2019-01-23",
    "price": "$3,433.63"
  },
  {
    "id_product": 21,
    "order_date": "2019-01-31",
    "price": "$1,579.20"
  },
  {
    "id_product": 32,
    "order_date": "2019-03-03",
    "price": "$1,177.54"
  },
  {
    "id_product": 31,
    "order_date": "2019-03-06",
    "price": "$3,322.54"
  },
  {
    "id_product": 38,
    "order_date": "2019-03-08",
    "price": "$1,867.91"
  },
  {
    "id_product": 25,
    "order_date": "2019-02-12",
    "price": "$1,477.27"
  },
  {
    "id_product": 22,
    "order_date": "2019-02-25",
    "price": "$1,581.44"
  },
  {
    "id_product": 20,
    "order_date": "2019-01-15",
    "price": "$3,017.24"
  },
  {
    "id_product": 29,
    "order_date": "2019-01-20",
    "price": "$3,344.02"
  },
  {
    "id_product": 39,
    "order_date": "2019-03-20",
    "price": "$1,891.55"
  },
  {
    "id_product": 21,
    "order_date": "2019-03-24",
    "price": "$3,752.98"
  },
  {
    "id_product": 40,
    "order_date": "2019-01-23",
    "price": "$3,607.17"
  },
  {
    "id_product": 22,
    "order_date": "2019-03-01",
    "price": "$1,817.71"
  },
  {
    "id_product": 22,
    "order_date": "2019-01-03",
    "price": "$2,470.62"
  },
  {
    "id_product": 38,
    "order_date": "2019-01-02",
    "price": "$1,556.92"
  },
  {
    "id_product": 24,
    "order_date": "2019-03-16",
    "price": "$1,698.11"
  },
  {
    "id_product": 20,
    "order_date": "2019-03-18",
    "price": "$2,561.60"
  },
  {
    "id_product": 26,
    "order_date": "2019-01-11",
    "price": "$3,205.32"
  },
  {
    "id_product": 28,
    "order_date": "2019-02-09",
    "price": "$2,966.94"
  },
  {
    "id_product": 38,
    "order_date": "2019-03-01",
    "price": "$2,267.47"
  },
  {
    "id_product": 37,
    "order_date": "2019-02-21",
    "price": "$1,323.54"
  },
  {
    "id_product": 40,
    "order_date": "2019-01-21",
    "price": "$2,319.40"
  },
  {
    "id_product": 29,
    "order_date": "2019-03-13",
    "price": "$2,979.74"
  },
  {
    "id_product": 40,
    "order_date": "2019-03-17",
    "price": "$1,683.41"
  },
  {
    "id_product": 36,
    "order_date": "2019-01-17",
    "price": "$1,700.40"
  },
  {
    "id_product": 33,
    "order_date": "2019-01-04",
    "price": "$3,814.98"
  },
  {
    "id_product": 33,
    "order_date": "2019-01-04",
    "price": "$3,687.11"
  },
  {
    "id_product": 21,
    "order_date": "2019-02-19",
    "price": "$1,595.68"
  },
  {
    "id_product": 23,
    "order_date": "2019-02-20",
    "price": "$3,680.62"
  },
  {
    "id_product": 20,
    "order_date": "2019-01-17",
    "price": "$1,765.74"
  },
  {
    "id_product": 39,
    "order_date": "2019-02-06",
    "price": "$1,154.82"
  },
  {
    "id_product": 20,
    "order_date": "2019-01-17",
    "price": "$1,154.54"
  },
  {
    "id_product": 40,
    "order_date": "2019-03-17",
    "price": "$2,142.74"
  },
  {
    "id_product": 30,
    "order_date": "2019-03-02",
    "price": "$2,387.98"
  },
  {
    "id_product": 27,
    "order_date": "2019-03-24",
    "price": "$3,966.82"
  },
  {
    "id_product": 22,
    "order_date": "2019-03-18",
    "price": "$2,598.50"
  },
  {
    "id_product": 34,
    "order_date": "2019-01-10",
    "price": "$2,827.73"
  },
  {
    "id_product": 22,
    "order_date": "2019-01-08",
    "price": "$2,332.21"
  },
  {
    "id_product": 29,
    "order_date": "2019-02-02",
    "price": "$2,077.20"
  },
  {
    "id_product": 23,
    "order_date": "2019-01-27",
    "price": "$3,982.54"
  },
  {
    "id_product": 28,
    "order_date": "2019-01-24",
    "price": "$3,108.27"
  },
  {
    "id_product": 22,
    "order_date": "2019-02-06",
    "price": "$1,503.34"
  },
  {
    "id_product": 33,
    "order_date": "2019-02-01",
    "price": "$1,288.05"
  },
  {
    "id_product": 34,
    "order_date": "2019-02-28",
    "price": "$2,204.11"
  },
  {
    "id_product": 23,
    "order_date": "2019-02-25",
    "price": "$1,594.05"
  },
  {
    "id_product": 24,
    "order_date": "2019-01-08",
    "price": "$3,565.69"
  },
  {
    "id_product": 23,
    "order_date": "2019-01-26",
    "price": "$2,621.57"
  },
  {
    "id_product": 33,
    "order_date": "2019-01-14",
    "price": "$1,454.99"
  },
  {
    "id_product": 36,
    "order_date": "2019-02-28",
    "price": "$1,605.72"
  },
  {
    "id_product": 26,
    "order_date": "2019-03-20",
    "price": "$1,379.96"
  },
  {
    "id_product": 24,
    "order_date": "2019-01-09",
    "price": "$3,136.39"
  },
  {
    "id_product": 31,
    "order_date": "2019-01-17",
    "price": "$1,710.06"
  },
  {
    "id_product": 28,
    "order_date": "2019-02-07",
    "price": "$2,797.13"
  },
  {
    "id_product": 21,
    "order_date": "2019-01-19",
    "price": "$3,668.21"
  },
  {
    "id_product": 25,
    "order_date": "2019-02-11",
    "price": "$2,908.86"
  },
  {
    "id_product": 29,
    "order_date": "2019-02-06",
    "price": "$2,017.36"
  },
  {
    "id_product": 25,
    "order_date": "2019-03-22",
    "price": "$3,260.97"
  },
  {
    "id_product": 39,
    "order_date": "2019-01-03",
    "price": "$1,889.29"
  },
  {
    "id_product": 32,
    "order_date": "2019-01-26",
    "price": "$2,875.53"
  },
  {
    "id_product": 31,
    "order_date": "2019-02-27",
    "price": "$1,696.86"
  },
  {
    "id_product": 33,
    "order_date": "2019-03-11",
    "price": "$1,872.84"
  },
  {
    "id_product": 21,
    "order_date": "2019-03-14",
    "price": "$1,146.81"
  },
  {
    "id_product": 21,
    "order_date": "2019-01-31",
    "price": "$3,853.80"
  },
  {
    "id_product": 34,
    "order_date": "2019-01-26",
    "price": "$2,537.85"
  },
  {
    "id_product": 20,
    "order_date": "2019-01-06",
    "price": "$3,710.05"
  },
  {
    "id_product": 21,
    "order_date": "2019-03-26",
    "price": "$2,129.88"
  },
  {
    "id_product": 32,
    "order_date": "2019-02-27",
    "price": "$3,637.51"
  },
  {
    "id_product": 33,
    "order_date": "2019-03-11",
    "price": "$2,813.09"
  },
  {
    "id_product": 22,
    "order_date": "2019-03-26",
    "price": "$2,890.93"
  },
  {
    "id_product": 40,
    "order_date": "2019-01-05",
    "price": "$3,517.02"
  },
  {
    "id_product": 37,
    "order_date": "2019-03-07",
    "price": "$2,738.74"
  },
  {
    "id_product": 33,
    "order_date": "2019-03-23",
    "price": "$1,025.66"
  },
  {
    "id_product": 28,
    "order_date": "2019-01-30",
    "price": "$3,319.38"
  },
  {
    "id_product": 20,
    "order_date": "2019-03-10",
    "price": "$2,441.73"
  },
  {
    "id_product": 26,
    "order_date": "2019-03-15",
    "price": "$2,453.80"
  },
  {
    "id_product": 35,
    "order_date": "2019-03-20",
    "price": "$1,742.16"
  },
  {
    "id_product": 24,
    "order_date": "2019-02-14",
    "price": "$1,713.98"
  },
  {
    "id_product": 25,
    "order_date": "2019-01-15",
    "price": "$3,509.84"
  },
  {
    "id_product": 21,
    "order_date": "2019-01-24",
    "price": "$3,171.53"
  },
  {
    "id_product": 34,
    "order_date": "2019-01-14",
    "price": "$1,248.36"
  },
  {
    "id_product": 25,
    "order_date": "2019-02-09",
    "price": "$1,269.93"
  },
  {
    "id_product": 29,
    "order_date": "2019-03-05",
    "price": "$3,909.00"
  },
  {
    "id_product": 38,
    "order_date": "2019-02-05",
    "price": "$3,049.07"
  },
  {
    "id_product": 24,
    "order_date": "2019-03-14",
    "price": "$3,769.18"
  },
  {
    "id_product": 21,
    "order_date": "2019-01-18",
    "price": "$2,017.56"
  },
  {
    "id_product": 28,
    "order_date": "2019-02-22",
    "price": "$2,097.14"
  },
  {
    "id_product": 28,
    "order_date": "2019-01-29",
    "price": "$2,702.97"
  },
  {
    "id_product": 25,
    "order_date": "2019-02-02",
    "price": "$2,667.83"
  },
  {
    "id_product": 24,
    "order_date": "2019-02-20",
    "price": "$1,032.67"
  },
  {
    "id_product": 35,
    "order_date": "2019-01-17",
    "price": "$1,756.34"
  },
  {
    "id_product": 35,
    "order_date": "2019-01-06",
    "price": "$3,683.56"
  },
  {
    "id_product": 39,
    "order_date": "2019-03-12",
    "price": "$3,048.31"
  },
  {
    "id_product": 34,
    "order_date": "2019-01-24",
    "price": "$1,035.64"
  },
  {
    "id_product": 29,
    "order_date": "2019-01-19",
    "price": "$1,091.75"
  },
  {
    "id_product": 34,
    "order_date": "2019-02-16",
    "price": "$3,945.32"
  },
  {
    "id_product": 23,
    "order_date": "2019-02-19",
    "price": "$2,520.07"
  },
  {
    "id_product": 23,
    "order_date": "2019-01-11",
    "price": "$2,000.15"
  },
  {
    "id_product": 29,
    "order_date": "2019-01-04",
    "price": "$1,423.80"
  },
  {
    "id_product": 29,
    "order_date": "2019-02-05",
    "price": "$2,781.63"
  },
  {
    "id_product": 36,
    "order_date": "2019-02-24",
    "price": "$1,553.32"
  },
  {
    "id_product": 32,
    "order_date": "2019-03-04",
    "price": "$2,305.56"
  },
  {
    "id_product": 26,
    "order_date": "2019-01-14",
    "price": "$2,704.77"
  },
  {
    "id_product": 30,
    "order_date": "2019-01-17",
    "price": "$2,964.82"
  },
  {
    "id_product": 24,
    "order_date": "2019-01-12",
    "price": "$3,471.28"
  },
  {
    "id_product": 25,
    "order_date": "2019-03-15",
    "price": "$3,135.98"
  },
  {
    "id_product": 37,
    "order_date": "2019-02-04",
    "price": "$2,698.34"
  },
  {
    "id_product": 32,
    "order_date": "2019-03-03",
    "price": "$2,540.18"
  },
  {
    "id_product": 33,
    "order_date": "2019-01-16",
    "price": "$2,078.93"
  },
  {
    "id_product": 26,
    "order_date": "2019-02-24",
    "price": "$3,267.32"
  },
  {
    "id_product": 28,
    "order_date": "2019-02-09",
    "price": "$2,514.90"
  },
  {
    "id_product": 23,
    "order_date": "2019-03-10",
    "price": "$1,284.25"
  },
  {
    "id_product": 39,
    "order_date": "2019-01-02",
    "price": "$1,074.21"
  },
  {
    "id_product": 29,
    "order_date": "2019-01-23",
    "price": "$2,259.94"
  },
  {
    "id_product": 28,
    "order_date": "2019-02-09",
    "price": "$3,549.01"
  },
  {
    "id_product": 20,
    "order_date": "2019-01-19",
    "price": "$2,017.15"
  },
  {
    "id_product": 27,
    "order_date": "2019-01-14",
    "price": "$2,299.21"
  },
  {
    "id_product": 22,
    "order_date": "2019-03-23",
    "price": "$2,473.85"
  },
  {
    "id_product": 23,
    "order_date": "2019-03-27",
    "price": "$3,309.50"
  },
  {
    "id_product": 31,
    "order_date": "2019-03-07",
    "price": "$3,644.36"
  },
  {
    "id_product": 25,
    "order_date": "2019-03-27",
    "price": "$2,780.16"
  },
  {
    "id_product": 34,
    "order_date": "2019-01-02",
    "price": "$3,410.90"
  },
  {
    "id_product": 21,
    "order_date": "2019-03-09",
    "price": "$3,785.56"
  },
  {
    "id_product": 34,
    "order_date": "2019-03-14",
    "price": "$2,639.44"
  },
  {
    "id_product": 22,
    "order_date": "2019-03-01",
    "price": "$1,090.91"
  },
  {
    "id_product": 24,
    "order_date": "2019-01-02",
    "price": "$1,803.63"
  },
  {
    "id_product": 39,
    "order_date": "2019-01-03",
    "price": "$2,187.05"
  },
  {
    "id_product": 36,
    "order_date": "2019-03-02",
    "price": "$1,250.68"
  },
  {
    "id_product": 28,
    "order_date": "2019-03-17",
    "price": "$3,715.24"
  },
  {
    "id_product": 21,
    "order_date": "2019-01-06",
    "price": "$3,329.56"
  },
  {
    "id_product": 31,
    "order_date": "2019-01-23",
    "price": "$3,750.41"
  },
  {
    "id_product": 37,
    "order_date": "2019-01-25",
    "price": "$3,553.73"
  },
  {
    "id_product": 26,
    "order_date": "2019-03-17",
    "price": "$3,899.37"
  },
  {
    "id_product": 30,
    "order_date": "2019-01-30",
    "price": "$1,938.22"
  },
  {
    "id_product": 39,
    "order_date": "2019-03-20",
    "price": "$3,083.39"
  },
  {
    "id_product": 22,
    "order_date": "2019-02-18",
    "price": "$3,081.17"
  },
  {
    "id_product": 33,
    "order_date": "2019-03-26",
    "price": "$3,669.91"
  },
  {
    "id_product": 21,
    "order_date": "2019-02-11",
    "price": "$2,495.22"
  },
  {
    "id_product": 40,
    "order_date": "2019-02-24",
    "price": "$3,868.87"
  },
  {
    "id_product": 22,
    "order_date": "2019-02-28",
    "price": "$2,944.77"
  },
  {
    "id_product": 20,
    "order_date": "2019-02-01",
    "price": "$1,053.53"
  },
  {
    "id_product": 25,
    "order_date": "2019-03-02",
    "price": "$3,595.84"
  },
  {
    "id_product": 27,
    "order_date": "2019-01-12",
    "price": "$1,179.57"
  },
  {
    "id_product": 21,
    "order_date": "2019-02-18",
    "price": "$2,784.15"
  },
  {
    "id_product": 27,
    "order_date": "2019-02-07",
    "price": "$1,653.35"
  },
  {
    "id_product": 20,
    "order_date": "2019-02-03",
    "price": "$3,393.81"
  },
  {
    "id_product": 20,
    "order_date": "2019-03-13",
    "price": "$1,065.96"
  },
  {
    "id_product": 35,
    "order_date": "2019-03-16",
    "price": "$1,690.81"
  },
  {
    "id_product": 23,
    "order_date": "2019-01-13",
    "price": "$3,611.32"
  },
  {
    "id_product": 20,
    "order_date": "2019-02-04",
    "price": "$2,252.35"
  },
  {
    "id_product": 20,
    "order_date": "2019-02-11",
    "price": "$3,786.23"
  },
  {
    "id_product": 35,
    "order_date": "2019-02-13",
    "price": "$3,238.40"
  },
  {
    "id_product": 27,
    "order_date": "2019-02-09",
    "price": "$3,033.94"
  },
  {
    "id_product": 20,
    "order_date": "2019-03-20",
    "price": "$1,404.78"
  },
  {
    "id_product": 29,
    "order_date": "2019-01-04",
    "price": "$3,571.41"
  },
  {
    "id_product": 27,
    "order_date": "2019-03-20",
    "price": "$1,498.32"
  },
  {
    "id_product": 37,
    "order_date": "2019-01-01",
    "price": "$1,969.83"
  },
  {
    "id_product": 36,
    "order_date": "2019-03-13",
    "price": "$1,433.64"
  },
  {
    "id_product": 28,
    "order_date": "2019-02-23",
    "price": "$3,094.81"
  },
  {
    "id_product": 27,
    "order_date": "2019-03-03",
    "price": "$3,217.71"
  },
  {
    "id_product": 22,
    "order_date": "2019-03-06",
    "price": "$3,075.58"
  },
  {
    "id_product": 36,
    "order_date": "2019-02-14",
    "price": "$2,042.33"
  },
  {
    "id_product": 33,
    "order_date": "2019-01-17",
    "price": "$3,823.52"
  },
  {
    "id_product": 30,
    "order_date": "2019-02-20",
    "price": "$1,726.74"
  },
  {
    "id_product": 20,
    "order_date": "2019-01-04",
    "price": "$1,278.58"
  },
  {
    "id_product": 25,
    "order_date": "2019-03-19",
    "price": "$2,577.11"
  },
  {
    "id_product": 33,
    "order_date": "2019-03-19",
    "price": "$2,341.95"
  },
  {
    "id_product": 24,
    "order_date": "2019-02-26",
    "price": "$3,986.02"
  },
  {
    "id_product": 21,
    "order_date": "2019-02-03",
    "price": "$1,023.23"
  },
  {
    "id_product": 37,
    "order_date": "2019-03-13",
    "price": "$2,162.58"
  },
  {
    "id_product": 39,
    "order_date": "2019-03-16",
    "price": "$1,524.41"
  },
  {
    "id_product": 33,
    "order_date": "2019-03-21",
    "price": "$1,750.60"
  },
  {
    "id_product": 26,
    "order_date": "2019-02-28",
    "price": "$1,295.78"
  },
  {
    "id_product": 36,
    "order_date": "2019-02-27",
    "price": "$2,995.59"
  },
  {
    "id_product": 39,
    "order_date": "2019-03-05",
    "price": "$1,165.03"
  },
  {
    "id_product": 32,
    "order_date": "2019-02-17",
    "price": "$2,402.62"
  },
  {
    "id_product": 30,
    "order_date": "2019-03-22",
    "price": "$2,316.65"
  },
  {
    "id_product": 21,
    "order_date": "2019-02-01",
    "price": "$2,925.27"
  },
  {
    "id_product": 38,
    "order_date": "2019-01-18",
    "price": "$3,633.95"
  },
  {
    "id_product": 29,
    "order_date": "2019-02-26",
    "price": "$3,978.49"
  },
  {
    "id_product": 37,
    "order_date": "2019-01-21",
    "price": "$2,922.83"
  },
  {
    "id_product": 23,
    "order_date": "2019-01-31",
    "price": "$2,600.30"
  },
  {
    "id_product": 32,
    "order_date": "2019-02-09",
    "price": "$3,045.90"
  },
  {
    "id_product": 20,
    "order_date": "2019-03-25",
    "price": "$2,491.12"
  },
  {
    "id_product": 32,
    "order_date": "2019-02-06",
    "price": "$1,820.42"
  },
  {
    "id_product": 29,
    "order_date": "2019-01-20",
    "price": "$2,361.76"
  },
  {
    "id_product": 28,
    "order_date": "2019-02-06",
    "price": "$3,355.78"
  },
  {
    "id_product": 27,
    "order_date": "2019-01-02",
    "price": "$1,528.73"
  },
  {
    "id_product": 21,
    "order_date": "2019-02-24",
    "price": "$1,600.20"
  },
  {
    "id_product": 34,
    "order_date": "2019-01-23",
    "price": "$3,831.71"
  },
  {
    "id_product": 28,
    "order_date": "2019-01-26",
    "price": "$1,805.12"
  },
  {
    "id_product": 23,
    "order_date": "2019-02-19",
    "price": "$1,765.68"
  },
  {
    "id_product": 34,
    "order_date": "2019-02-14",
    "price": "$2,515.76"
  },
  {
    "id_product": 35,
    "order_date": "2019-02-23",
    "price": "$3,349.86"
  },
  {
    "id_product": 35,
    "order_date": "2019-01-23",
    "price": "$3,860.99"
  },
  {
    "id_product": 27,
    "order_date": "2019-01-04",
    "price": "$2,006.82"
  },
  {
    "id_product": 36,
    "order_date": "2019-02-16",
    "price": "$3,706.65"
  },
  {
    "id_product": 20,
    "order_date": "2019-01-25",
    "price": "$2,665.61"
  },
  {
    "id_product": 33,
    "order_date": "2019-03-16",
    "price": "$2,209.22"
  },
  {
    "id_product": 39,
    "order_date": "2019-01-09",
    "price": "$2,465.84"
  },
  {
    "id_product": 37,
    "order_date": "2019-03-22",
    "price": "$3,686.06"
  },
  {
    "id_product": 25,
    "order_date": "2019-01-09",
    "price": "$1,800.12"
  },
  {
    "id_product": 20,
    "order_date": "2019-03-08",
    "price": "$3,446.90"
  },
  {
    "id_product": 23,
    "order_date": "2019-02-11",
    "price": "$3,042.12"
  },
  {
    "id_product": 31,
    "order_date": "2019-03-01",
    "price": "$1,875.08"
  },
  {
    "id_product": 27,
    "order_date": "2019-01-07",
    "price": "$1,539.76"
  },
  {
    "id_product": 29,
    "order_date": "2019-02-15",
    "price": "$2,853.24"
  },
  {
    "id_product": 34,
    "order_date": "2019-02-14",
    "price": "$1,221.99"
  },
  {
    "id_product": 22,
    "order_date": "2019-01-05",
    "price": "$2,022.58"
  },
  {
    "id_product": 40,
    "order_date": "2019-02-11",
    "price": "$3,864.75"
  },
  {
    "id_product": 39,
    "order_date": "2019-02-16",
    "price": "$2,942.82"
  },
  {
    "id_product": 30,
    "order_date": "2019-03-25",
    "price": "$1,883.63"
  },
  {
    "id_product": 21,
    "order_date": "2019-01-31",
    "price": "$1,953.44"
  },
  {
    "id_product": 37,
    "order_date": "2019-03-27",
    "price": "$2,133.06"
  },
  {
    "id_product": 22,
    "order_date": "2019-02-05",
    "price": "$2,990.42"
  },
  {
    "id_product": 23,
    "order_date": "2019-03-21",
    "price": "$2,961.21"
  },
  {
    "id_product": 20,
    "order_date": "2019-01-15",
    "price": "$1,638.64"
  },
  {
    "id_product": 20,
    "order_date": "2019-01-19",
    "price": "$1,619.79"
  },
  {
    "id_product": 21,
    "order_date": "2019-03-04",
    "price": "$1,179.06"
  },
  {
    "id_product": 28,
    "order_date": "2019-01-03",
    "price": "$1,084.58"
  },
  {
    "id_product": 40,
    "order_date": "2019-01-02",
    "price": "$3,537.17"
  },
  {
    "id_product": 27,
    "order_date": "2019-01-29",
    "price": "$1,142.15"
  },
  {
    "id_product": 35,
    "order_date": "2019-01-27",
    "price": "$2,533.38"
  },
  {
    "id_product": 24,
    "order_date": "2019-03-10",
    "price": "$1,680.57"
  },
  {
    "id_product": 22,
    "order_date": "2019-03-06",
    "price": "$3,883.73"
  },
  {
    "id_product": 26,
    "order_date": "2019-03-12",
    "price": "$2,609.46"
  },
  {
    "id_product": 21,
    "order_date": "2019-01-17",
    "price": "$1,481.85"
  },
  {
    "id_product": 38,
    "order_date": "2019-02-27",
    "price": "$3,977.79"
  },
  {
    "id_product": 31,
    "order_date": "2019-01-05",
    "price": "$1,690.04"
  },
  {
    "id_product": 30,
    "order_date": "2019-02-23",
    "price": "$1,485.94"
  },
  {
    "id_product": 32,
    "order_date": "2019-02-11",
    "price": "$2,104.08"
  },
  {
    "id_product": 40,
    "order_date": "2019-03-10",
    "price": "$2,335.67"
  },
  {
    "id_product": 36,
    "order_date": "2019-01-23",
    "price": "$2,706.30"
  },
  {
    "id_product": 33,
    "order_date": "2019-02-04",
    "price": "$2,164.46"
  },
  {
    "id_product": 29,
    "order_date": "2019-01-28",
    "price": "$3,824.40"
  },
  {
    "id_product": 24,
    "order_date": "2019-03-01",
    "price": "$3,877.66"
  },
  {
    "id_product": 32,
    "order_date": "2019-03-06",
    "price": "$2,802.38"
  },
  {
    "id_product": 37,
    "order_date": "2019-03-21",
    "price": "$3,337.46"
  },
  {
    "id_product": 39,
    "order_date": "2019-02-16",
    "price": "$2,620.88"
  },
  {
    "id_product": 36,
    "order_date": "2019-03-05",
    "price": "$2,152.54"
  },
  {
    "id_product": 35,
    "order_date": "2019-02-03",
    "price": "$2,611.61"
  },
  {
    "id_product": 24,
    "order_date": "2019-02-08",
    "price": "$3,384.28"
  },
  {
    "id_product": 32,
    "order_date": "2019-03-06",
    "price": "$3,545.62"
  },
  {
    "id_product": 25,
    "order_date": "2019-01-27",
    "price": "$3,087.50"
  },
  {
    "id_product": 24,
    "order_date": "2019-01-21",
    "price": "$1,446.98"
  },
  {
    "id_product": 40,
    "order_date": "2019-03-06",
    "price": "$2,820.56"
  },
  {
    "id_product": 33,
    "order_date": "2019-01-15",
    "price": "$3,623.49"
  },
  {
    "id_product": 37,
    "order_date": "2019-01-15",
    "price": "$3,830.41"
  },
  {
    "id_product": 29,
    "order_date": "2019-01-21",
    "price": "$3,465.83"
  },
  {
    "id_product": 40,
    "order_date": "2019-02-02",
    "price": "$1,893.68"
  },
  {
    "id_product": 38,
    "order_date": "2019-01-10",
    "price": "$3,167.06"
  },
  {
    "id_product": 38,
    "order_date": "2019-03-14",
    "price": "$2,563.89"
  },
  {
    "id_product": 28,
    "order_date": "2019-02-13",
    "price": "$3,953.02"
  },
  {
    "id_product": 37,
    "order_date": "2019-01-01",
    "price": "$2,085.65"
  },
  {
    "id_product": 34,
    "order_date": "2019-01-04",
    "price": "$1,807.91"
  },
  {
    "id_product": 29,
    "order_date": "2019-03-08",
    "price": "$2,654.78"
  },
  {
    "id_product": 26,
    "order_date": "2019-03-18",
    "price": "$3,045.40"
  },
  {
    "id_product": 22,
    "order_date": "2019-02-12",
    "price": "$2,831.47"
  },
  {
    "id_product": 32,
    "order_date": "2019-01-09",
    "price": "$3,177.72"
  },
  {
    "id_product": 24,
    "order_date": "2019-03-12",
    "price": "$1,214.30"
  },
  {
    "id_product": 39,
    "order_date": "2019-02-05",
    "price": "$2,955.72"
  },
  {
    "id_product": 31,
    "order_date": "2019-02-25",
    "price": "$1,888.01"
  },
  {
    "id_product": 23,
    "order_date": "2019-02-20",
    "price": "$3,572.58"
  },
  {
    "id_product": 36,
    "order_date": "2019-03-04",
    "price": "$3,870.53"
  },
  {
    "id_product": 40,
    "order_date": "2019-01-20",
    "price": "$2,531.89"
  },
  {
    "id_product": 32,
    "order_date": "2019-03-09",
    "price": "$2,417.64"
  },
  {
    "id_product": 29,
    "order_date": "2019-01-29",
    "price": "$1,300.62"
  },
  {
    "id_product": 37,
    "order_date": "2019-03-05",
    "price": "$2,549.93"
  },
  {
    "id_product": 23,
    "order_date": "2019-01-17",
    "price": "$2,661.57"
  },
  {
    "id_product": 23,
    "order_date": "2019-01-09",
    "price": "$1,944.67"
  },
  {
    "id_product": 35,
    "order_date": "2019-03-21",
    "price": "$3,643.45"
  },
  {
    "id_product": 40,
    "order_date": "2019-03-18",
    "price": "$3,004.52"
  },
  {
    "id_product": 37,
    "order_date": "2019-01-25",
    "price": "$1,025.64"
  },
  {
    "id_product": 30,
    "order_date": "2019-03-18",
    "price": "$3,162.96"
  },
  {
    "id_product": 24,
    "order_date": "2019-02-17",
    "price": "$1,126.08"
  },
  {
    "id_product": 34,
    "order_date": "2019-03-18",
    "price": "$2,189.12"
  },
  {
    "id_product": 24,
    "order_date": "2019-03-04",
    "price": "$3,199.64"
  },
  {
    "id_product": 40,
    "order_date": "2019-02-01",
    "price": "$3,970.96"
  },
  {
    "id_product": 22,
    "order_date": "2019-02-04",
    "price": "$1,588.45"
  },
  {
    "id_product": 33,
    "order_date": "2019-02-09",
    "price": "$1,720.04"
  },
  {
    "id_product": 20,
    "order_date": "2019-03-23",
    "price": "$1,682.16"
  },
  {
    "id_product": 38,
    "order_date": "2019-01-10",
    "price": "$1,420.35"
  },
  {
    "id_product": 39,
    "order_date": "2019-01-04",
    "price": "$2,889.80"
  },
  {
    "id_product": 34,
    "order_date": "2019-01-10",
    "price": "$1,693.00"
  },
  {
    "id_product": 30,
    "order_date": "2019-02-28",
    "price": "$2,917.64"
  },
  {
    "id_product": 38,
    "order_date": "2019-01-15",
    "price": "$2,109.59"
  },
  {
    "id_product": 33,
    "order_date": "2019-02-04",
    "price": "$2,363.89"
  },
  {
    "id_product": 28,
    "order_date": "2019-01-18",
    "price": "$3,468.29"
  },
  {
    "id_product": 29,
    "order_date": "2019-02-04",
    "price": "$3,255.01"
  },
  {
    "id_product": 38,
    "order_date": "2019-03-26",
    "price": "$3,849.80"
  },
  {
    "id_product": 35,
    "order_date": "2019-01-12",
    "price": "$3,634.52"
  },
  {
    "id_product": 40,
    "order_date": "2019-02-17",
    "price": "$1,435.94"
  },
  {
    "id_product": 30,
    "order_date": "2019-03-24",
    "price": "$3,270.85"
  },
  {
    "id_product": 32,
    "order_date": "2019-01-04",
    "price": "$3,453.92"
  },
  {
    "id_product": 36,
    "order_date": "2019-02-20",
    "price": "$3,273.72"
  },
  {
    "id_product": 32,
    "order_date": "2019-01-25",
    "price": "$3,330.41"
  },
  {
    "id_product": 40,
    "order_date": "2019-03-21",
    "price": "$2,874.30"
  },
  {
    "id_product": 22,
    "order_date": "2019-03-11",
    "price": "$2,209.07"
  },
  {
    "id_product": 20,
    "order_date": "2019-03-20",
    "price": "$3,609.75"
  },
  {
    "id_product": 20,
    "order_date": "2019-01-24",
    "price": "$2,099.14"
  },
  {
    "id_product": 24,
    "order_date": "2019-01-30",
    "price": "$3,055.10"
  },
  {
    "id_product": 31,
    "order_date": "2019-03-09",
    "price": "$2,262.75"
  },
  {
    "id_product": 36,
    "order_date": "2019-03-04",
    "price": "$1,282.66"
  },
  {
    "id_product": 26,
    "order_date": "2019-01-19",
    "price": "$2,479.05"
  },
  {
    "id_product": 38,
    "order_date": "2019-02-17",
    "price": "$3,986.96"
  },
  {
    "id_product": 30,
    "order_date": "2019-02-04",
    "price": "$2,174.19"
  },
  {
    "id_product": 26,
    "order_date": "2019-02-25",
    "price": "$3,588.31"
  },
  {
    "id_product": 40,
    "order_date": "2019-02-26",
    "price": "$1,377.40"
  },
  {
    "id_product": 28,
    "order_date": "2019-02-10",
    "price": "$1,300.44"
  },
  {
    "id_product": 29,
    "order_date": "2019-02-24",
    "price": "$1,069.31"
  },
  {
    "id_product": 38,
    "order_date": "2019-03-27",
    "price": "$3,646.93"
  },
  {
    "id_product": 24,
    "order_date": "2019-03-24",
    "price": "$2,663.37"
  },
  {
    "id_product": 20,
    "order_date": "2019-01-17",
    "price": "$1,494.98"
  },
  {
    "id_product": 31,
    "order_date": "2019-02-28",
    "price": "$1,164.82"
  },
  {
    "id_product": 37,
    "order_date": "2019-01-19",
    "price": "$1,770.08"
  },
  {
    "id_product": 38,
    "order_date": "2019-02-23",
    "price": "$1,787.49"
  },
  {
    "id_product": 29,
    "order_date": "2019-01-22",
    "price": "$1,882.10"
  },
  {
    "id_product": 38,
    "order_date": "2019-01-19",
    "price": "$3,168.99"
  },
  {
    "id_product": 21,
    "order_date": "2019-01-04",
    "price": "$3,418.41"
  },
  {
    "id_product": 30,
    "order_date": "2019-03-20",
    "price": "$1,688.61"
  },
  {
    "id_product": 25,
    "order_date": "2019-02-09",
    "price": "$3,823.70"
  },
  {
    "id_product": 32,
    "order_date": "2019-02-25",
    "price": "$3,862.09"
  },
  {
    "id_product": 23,
    "order_date": "2019-03-19",
    "price": "$3,840.59"
  },
  {
    "id_product": 36,
    "order_date": "2019-01-30",
    "price": "$3,554.60"
  },
  {
    "id_product": 23,
    "order_date": "2019-01-12",
    "price": "$1,492.62"
  },
  {
    "id_product": 25,
    "order_date": "2019-01-08",
    "price": "$2,054.95"
  },
  {
    "id_product": 40,
    "order_date": "2019-01-04",
    "price": "$2,039.83"
  },
  {
    "id_product": 40,
    "order_date": "2019-03-05",
    "price": "$2,496.59"
  },
  {
    "id_product": 35,
    "order_date": "2019-01-16",
    "price": "$1,998.73"
  },
  {
    "id_product": 22,
    "order_date": "2019-01-03",
    "price": "$3,780.81"
  },
  {
    "id_product": 21,
    "order_date": "2019-03-26",
    "price": "$2,938.03"
  },
  {
    "id_product": 24,
    "order_date": "2019-02-11",
    "price": "$3,908.47"
  },
  {
    "id_product": 26,
    "order_date": "2019-03-21",
    "price": "$2,765.60"
  },
  {
    "id_product": 34,
    "order_date": "2019-02-18",
    "price": "$2,630.43"
  },
  {
    "id_product": 27,
    "order_date": "2019-03-17",
    "price": "$3,918.88"
  },
  {
    "id_product": 38,
    "order_date": "2019-01-05",
    "price": "$2,408.01"
  },
  {
    "id_product": 29,
    "order_date": "2019-01-08",
    "price": "$2,127.52"
  },
  {
    "id_product": 32,
    "order_date": "2019-03-04",
    "price": "$1,915.55"
  },
  {
    "id_product": 38,
    "order_date": "2019-02-22",
    "price": "$2,683.33"
  },
  {
    "id_product": 37,
    "order_date": "2019-01-16",
    "price": "$3,294.72"
  },
  {
    "id_product": 30,
    "order_date": "2019-03-09",
    "price": "$1,463.85"
  },
  {
    "id_product": 21,
    "order_date": "2019-02-22",
    "price": "$2,355.39"
  },
  {
    "id_product": 27,
    "order_date": "2019-02-04",
    "price": "$1,201.12"
  },
  {
    "id_product": 23,
    "order_date": "2019-01-31",
    "price": "$3,530.08"
  },
  {
    "id_product": 25,
    "order_date": "2019-02-10",
    "price": "$3,858.71"
  },
  {
    "id_product": 21,
    "order_date": "2019-03-27",
    "price": "$1,554.42"
  },
  {
    "id_product": 33,
    "order_date": "2019-01-02",
    "price": "$1,071.73"
  },
  {
    "id_product": 34,
    "order_date": "2019-02-07",
    "price": "$3,145.89"
  },
  {
    "id_product": 30,
    "order_date": "2019-02-01",
    "price": "$1,612.18"
  },
  {
    "id_product": 37,
    "order_date": "2019-03-11",
    "price": "$2,919.61"
  },
  {
    "id_product": 36,
    "order_date": "2019-02-28",
    "price": "$3,196.91"
  },
  {
    "id_product": 28,
    "order_date": "2019-02-19",
    "price": "$3,947.47"
  },
  {
    "id_product": 31,
    "order_date": "2019-03-10",
    "price": "$3,619.16"
  },
  {
    "id_product": 40,
    "order_date": "2019-01-11",
    "price": "$2,185.64"
  },
  {
    "id_product": 21,
    "order_date": "2019-01-16",
    "price": "$1,205.27"
  },
  {
    "id_product": 27,
    "order_date": "2019-03-05",
    "price": "$1,873.19"
  },
  {
    "id_product": 25,
    "order_date": "2019-01-26",
    "price": "$2,705.40"
  },
  {
    "id_product": 35,
    "order_date": "2019-03-16",
    "price": "$1,362.73"
  },
  {
    "id_product": 21,
    "order_date": "2019-01-18",
    "price": "$1,661.75"
  },
  {
    "id_product": 36,
    "order_date": "2019-02-06",
    "price": "$1,446.58"
  },
  {
    "id_product": 27,
    "order_date": "2019-03-03",
    "price": "$1,126.71"
  },
  {
    "id_product": 34,
    "order_date": "2019-03-16",
    "price": "$2,604.15"
  },
  {
    "id_product": 28,
    "order_date": "2019-03-23",
    "price": "$1,481.14"
  },
  {
    "id_product": 35,
    "order_date": "2019-01-11",
    "price": "$3,584.89"
  },
  {
    "id_product": 37,
    "order_date": "2019-01-02",
    "price": "$3,933.10"
  },
  {
    "id_product": 24,
    "order_date": "2019-01-01",
    "price": "$1,812.96"
  },
  {
    "id_product": 27,
    "order_date": "2019-03-18",
    "price": "$3,168.06"
  },
  {
    "id_product": 21,
    "order_date": "2019-02-19",
    "price": "$2,017.44"
  },
  {
    "id_product": 37,
    "order_date": "2019-01-01",
    "price": "$2,116.75"
  },
  {
    "id_product": 25,
    "order_date": "2019-02-14",
    "price": "$2,522.53"
  },
  {
    "id_product": 39,
    "order_date": "2019-02-01",
    "price": "$2,727.71"
  },
  {
    "id_product": 33,
    "order_date": "2019-02-27",
    "price": "$1,031.22"
  },
  {
    "id_product": 40,
    "order_date": "2019-02-19",
    "price": "$1,397.36"
  },
  {
    "id_product": 39,
    "order_date": "2019-03-09",
    "price": "$3,778.23"
  },
  {
    "id_product": 36,
    "order_date": "2019-03-16",
    "price": "$3,737.10"
  },
  {
    "id_product": 28,
    "order_date": "2019-01-24",
    "price": "$1,845.16"
  },
  {
    "id_product": 20,
    "order_date": "2019-03-28",
    "price": "$1,166.97"
  },
  {
    "id_product": 38,
    "order_date": "2019-01-10",
    "price": "$2,052.90"
  },
  {
    "id_product": 26,
    "order_date": "2019-02-08",
    "price": "$3,178.45"
  },
  {
    "id_product": 39,
    "order_date": "2019-01-17",
    "price": "$1,417.92"
  },
  {
    "id_product": 27,
    "order_date": "2019-03-27",
    "price": "$1,707.68"
  },
  {
    "id_product": 22,
    "order_date": "2019-02-21",
    "price": "$1,516.13"
  },
  {
    "id_product": 33,
    "order_date": "2019-03-10",
    "price": "$3,322.56"
  },
  {
    "id_product": 31,
    "order_date": "2019-01-19",
    "price": "$1,072.67"
  },
  {
    "id_product": 21,
    "order_date": "2019-01-18",
    "price": "$3,132.59"
  },
  {
    "id_product": 23,
    "order_date": "2019-02-07",
    "price": "$1,321.75"
  },
  {
    "id_product": 30,
    "order_date": "2019-03-15",
    "price": "$2,529.85"
  },
  {
    "id_product": 30,
    "order_date": "2019-02-19",
    "price": "$3,505.06"
  },
  {
    "id_product": 36,
    "order_date": "2019-03-14",
    "price": "$1,554.71"
  },
  {
    "id_product": 32,
    "order_date": "2019-03-04",
    "price": "$1,430.92"
  },
  {
    "id_product": 39,
    "order_date": "2019-01-16",
    "price": "$2,218.07"
  },
  {
    "id_product": 26,
    "order_date": "2019-02-22",
    "price": "$2,740.26"
  },
  {
    "id_product": 35,
    "order_date": "2019-03-12",
    "price": "$1,834.81"
  },
  {
    "id_product": 26,
    "order_date": "2019-01-26",
    "price": "$2,328.23"
  },
  {
    "id_product": 32,
    "order_date": "2019-01-12",
    "price": "$1,668.21"
  },
  {
    "id_product": 24,
    "order_date": "2019-03-04",
    "price": "$2,068.41"
  },
  {
    "id_product": 29,
    "order_date": "2019-01-07",
    "price": "$2,297.67"
  },
  {
    "id_product": 37,
    "order_date": "2019-02-08",
    "price": "$3,907.40"
  },
  {
    "id_product": 23,
    "order_date": "2019-01-03",
    "price": "$1,288.16"
  },
  {
    "id_product": 31,
    "order_date": "2019-03-08",
    "price": "$3,569.73"
  },
  {
    "id_product": 26,
    "order_date": "2019-01-18",
    "price": "$1,343.58"
  },
  {
    "id_product": 33,
    "order_date": "2019-03-12",
    "price": "$2,393.05"
  },
  {
    "id_product": 34,
    "order_date": "2019-02-17",
    "price": "$3,707.73"
  },
  {
    "id_product": 22,
    "order_date": "2019-02-21",
    "price": "$2,759.75"
  },
  {
    "id_product": 38,
    "order_date": "2019-03-24",
    "price": "$2,483.04"
  },
  {
    "id_product": 39,
    "order_date": "2019-01-05",
    "price": "$3,661.92"
  },
  {
    "id_product": 32,
    "order_date": "2019-02-19",
    "price": "$1,428.13"
  },
  {
    "id_product": 32,
    "order_date": "2019-03-13",
    "price": "$1,405.77"
  },
  {
    "id_product": 34,
    "order_date": "2019-02-25",
    "price": "$3,246.90"
  },
  {
    "id_product": 24,
    "order_date": "2019-02-19",
    "price": "$1,595.63"
  },
  {
    "id_product": 33,
    "order_date": "2019-01-09",
    "price": "$2,921.16"
  },
  {
    "id_product": 24,
    "order_date": "2019-03-19",
    "price": "$2,846.48"
  },
  {
    "id_product": 36,
    "order_date": "2019-02-21",
    "price": "$3,224.67"
  },
  {
    "id_product": 24,
    "order_date": "2019-01-26",
    "price": "$3,362.88"
  },
  {
    "id_product": 36,
    "order_date": "2019-02-23",
    "price": "$1,423.84"
  },
  {
    "id_product": 39,
    "order_date": "2019-01-31",
    "price": "$1,670.24"
  },
  {
    "id_product": 35,
    "order_date": "2019-03-17",
    "price": "$1,002.98"
  },
  {
    "id_product": 30,
    "order_date": "2019-03-14",
    "price": "$1,315.65"
  },
  {
    "id_product": 36,
    "order_date": "2019-02-26",
    "price": "$3,996.66"
  },
  {
    "id_product": 39,
    "order_date": "2019-02-15",
    "price": "$3,723.15"
  },
  {
    "id_product": 24,
    "order_date": "2019-03-05",
    "price": "$3,118.97"
  },
  {
    "id_product": 30,
    "order_date": "2019-01-15",
    "price": "$1,525.29"
  },
  {
    "id_product": 38,
    "order_date": "2019-03-12",
    "price": "$3,755.29"
  },
  {
    "id_product": 35,
    "order_date": "2019-01-03",
    "price": "$3,839.82"
  },
  {
    "id_product": 33,
    "order_date": "2019-02-08",
    "price": "$3,747.65"
  },
  {
    "id_product": 28,
    "order_date": "2019-02-04",
    "price": "$1,412.23"
  },
  {
    "id_product": 37,
    "order_date": "2019-02-21",
    "price": "$3,280.86"
  },
  {
    "id_product": 29,
    "order_date": "2019-03-02",
    "price": "$2,078.54"
  },
  {
    "id_product": 37,
    "order_date": "2019-03-19",
    "price": "$1,163.05"
  },
  {
    "id_product": 24,
    "order_date": "2019-03-04",
    "price": "$1,738.92"
  },
  {
    "id_product": 39,
    "order_date": "2019-02-13",
    "price": "$2,933.68"
  },
  {
    "id_product": 32,
    "order_date": "2019-03-07",
    "price": "$2,921.25"
  },
  {
    "id_product": 38,
    "order_date": "2019-02-11",
    "price": "$1,842.08"
  },
  {
    "id_product": 40,
    "order_date": "2019-02-17",
    "price": "$1,026.35"
  }
]